Division,WeightClassKg,Place,Name,Team,BodyweightKg,Best3SquatKg,Best3BenchKg,Best3DeadliftKg,TotalKg,Equipment,Event,Sex
Boys,51.71,1,Zack Sherrod,Anton,50.62,108.86,81.65,131.54,322.05,Single-ply,SBD,M
Boys,51.71,2,Salvador Antillon,Seminole,48.17,106.59,61.23,108.86,276.69,Single-ply,SBD,M
Boys,51.71,3,Hayden Belongia,Post,50.98,88.45,56.7,95.25,240.4,Single-ply,SBD,M
Boys,51.71,4,Jimmie Vaughn,Seminole,49.99,79.38,52.16,99.79,231.33,Single-ply,SBD,M
Boys,51.71,5,Erik Gomez,Post,45.18,83.91,43.09,92.99,219.99,Single-ply,SBD,M
Boys,51.71,6,Jonathan Hernandez,Lamesa,48.44,72.57,47.63,86.18,206.38,Single-ply,SBD,M
Boys,55.79,1,Gabe Garcia,Midland,54.98,133.81,79.38,174.63,387.82,Single-ply,SBD,M
Boys,55.79,2,Reid Clanton,Midland Greenwood,53.16,129.27,72.57,147.42,349.27,Single-ply,SBD,M
Boys,55.79,3,Joseph Campos,Midland,54.98,133.81,65.77,149.69,349.27,Single-ply,SBD,M
Boys,55.79,4,Angel Samarron,Lazbuddie,55.52,127.01,79.38,142.88,349.27,Single-ply,SBD,M
Boys,55.79,5,Cole Byerly,Midland Greenwood,55.79,120.2,77.11,124.74,322.05,Single-ply,SBD,M
Boys,55.79,6,Christian Perez,Post,53.61,124.74,47.63,124.74,297.1,Single-ply,SBD,M
Boys,55.79,7,Ronald Banman,Seminole,53.34,90.72,63.5,124.74,278.96,Single-ply,SBD,M
Boys,55.79,8,Preston Perez,Midland Greenwood,54.79,47.63,56.7,72.57,176.9,Single-ply,SBD,M
Boys,55.79,DQ,Coby Rotan,Midland Lee,53.52,108.86,,,,Single-ply,SBD,M
Boys,59.87,1,Andrew Alvidrez,Seminole,59.15,174.63,104.33,181.44,460.4,Single-ply,SBD,M
Boys,59.87,2,Pablo Hinojosa,Lamesa,58.79,158.76,90.72,183.7,433.18,Single-ply,SBD,M
Boys,59.87,3,Josh Martinez,Midland Greenwood,58.33,142.88,79.38,154.22,376.48,Single-ply,SBD,M
Boys,59.87,4,Wesley Payton,Lamesa,58.51,113.4,77.11,136.08,326.59,Single-ply,SBD,M
Boys,59.87,5,Cameron Hurd,Midland,59.78,120.2,47.63,115.67,283.5,Single-ply,SBD,M
Boys,59.87,6,Kevin Fehr,Wolfforth Frenship,58.88,70.31,43.09,102.06,215.46,Single-ply,SBD,M
Boys,67.13,1,Karlonte Jackson,Anton,65.32,190.51,72.57,192.78,455.86,Single-ply,SBD,M
Boys,67.13,2,Thomas Garcia,Midland,66.13,170.1,108.86,176.9,455.86,Single-ply,SBD,M
Boys,67.13,3,Juan Losoya,Midland,66.59,183.7,88.45,170.1,442.25,Single-ply,SBD,M
Boys,67.13,4,DJ Brown,Post,61.69,156.49,102.06,174.63,433.18,Single-ply,SBD,M
Boys,67.13,5,David Denton,Wolfforth Frenship,66.04,147.42,79.38,149.69,376.48,Single-ply,SBD,M
Boys,67.13,6,Randon Lance,Denver City,64.5,124.74,83.91,147.42,356.07,Single-ply,SBD,M
Boys,67.13,7,Albert Solano,Lazbuddie,60.42,113.4,74.84,149.69,337.93,Single-ply,SBD,M
Boys,67.13,8,Logan Gersbach,Seminole,62.6,117.93,81.65,131.54,331.12,Single-ply,SBD,M
Boys,67.13,9,Alejo Rodriguez,Post,61.05,106.59,70.31,124.74,301.64,Single-ply,SBD,M
Boys,67.13,10,Keaton Collins,Post,64.59,106.59,70.31,124.74,301.64,Single-ply,SBD,M
Boys,67.13,11,Darrion Kumm,Wolfforth Frenship,62.78,97.52,70.31,124.74,292.57,Single-ply,SBD,M
Boys,67.13,12,Cesar Payen,Midland Lee,61.78,81.65,70.31,113.4,265.35,Single-ply,SBD,M
Boys,74.84,1,Trey Cave,Midland Greenwood,69.76,183.7,108.86,188.24,480.81,Single-ply,SBD,M
Boys,74.84,2,Stetson Hilger,Midland Greenwood,73.66,170.1,115.67,176.9,462.66,Single-ply,SBD,M
Boys,74.84,3,Ivan Melendez,Midland,72.94,163.29,92.99,197.31,453.59,Single-ply,SBD,M
Boys,74.84,4,Marcus Salinas,Midland,73.57,163.29,92.99,197.31,453.59,Single-ply,SBD,M
Boys,74.84,5,Xzavier Martinez,Midland,70.76,163.29,104.33,167.83,435.45,Single-ply,SBD,M
Boys,74.84,6,Ramon Juarez,Seminole,73.48,167.83,90.72,174.63,433.18,Single-ply,SBD,M
Boys,74.84,7,Daravion Williams,Midland Lee,73.75,154.22,102.06,158.76,415.04,Single-ply,SBD,M
Boys,74.84,8,Caden Dean,Post,73.75,151.95,111.13,147.42,410.5,Single-ply,SBD,M
Boys,74.84,9,Dillion Stevens,Wolfforth Frenship,68.04,158.76,90.72,158.76,408.23,Single-ply,SBD,M
Boys,74.84,10,Dallas Cox,Lazbuddie,71.76,140.61,77.11,190.51,408.23,Single-ply,SBD,M
Boys,74.84,11,Larnce Hicks,Denver City,69.04,131.54,111.13,161.03,403.7,Single-ply,SBD,M
Boys,74.84,12,Isaac Stern,Post,69.22,142.88,97.52,161.03,401.43,Single-ply,SBD,M
Boys,74.84,13,Mizael Orona,Odessa,73.66,124.74,104.33,158.76,387.82,Single-ply,SBD,M
Boys,74.84,14,Chris Bell,Midland Lee,73.75,127.01,83.91,147.42,358.34,Single-ply,SBD,M
Boys,74.84,15,Justin Cabezuela,Odessa,74.12,122.47,88.45,147.42,358.34,Single-ply,SBD,M
Boys,74.84,16,Cain Abalos,Midland Lee,69.13,131.54,79.38,136.08,347,Single-ply,SBD,M
Boys,74.84,17,Cesar Saldona,Odessa,71.03,113.4,79.38,149.69,342.46,Single-ply,SBD,M
Boys,74.84,18,Alan Alaniz,Post,67.86,111.13,92.99,133.81,337.93,Single-ply,SBD,M
Boys,74.84,19,Juan Pando,Anton,73.66,136.08,61.23,117.93,315.25,Single-ply,SBD,M
Boys,74.84,DQ,Mario Ramirez,Odessa,67.86,,,,,Single-ply,SBD,M
Boys,89.81,1,Clayton Clair,Odessa,82.19,204.12,102.06,219.99,526.17,Single-ply,SBD,M
Boys,82.1,2,Luis Juarez,Midland,77.93,197.31,106.59,219.99,523.9,Single-ply,SBD,M
Boys,82.1,3,Phillip Fuentes,Midland,76.93,199.58,97.52,213.19,510.29,Single-ply,SBD,M
Boys,82.1,4,George Klassen,Seminole,78.65,172.37,97.52,181.44,451.32,Single-ply,SBD,M
Boys,82.1,5,DruMarcus Austin,Midland Lee,77.84,181.44,95.25,172.37,449.06,Single-ply,SBD,M
Boys,82.1,6,Andrew Mendez,Wolfforth Frenship,81.1,149.69,95.25,190.51,435.45,Single-ply,SBD,M
Boys,82.1,7,Dustin Rea,Midland Greenwood,76.93,158.76,102.06,167.83,428.64,Single-ply,SBD,M
Boys,82.1,8,Dalton Driver,Seminole,79.74,163.29,90.72,149.69,403.7,Single-ply,SBD,M
Boys,82.1,9,Dexter Longley,Seminole,80.2,147.42,97.52,158.76,403.7,Single-ply,SBD,M
Boys,82.1,10,David Montiel,Anton,82.01,131.54,92.99,176.9,401.43,Single-ply,SBD,M
Boys,82.1,11,Christian Eddison,Odessa,82.1,124.74,97.52,163.29,385.55,Single-ply,SBD,M
Boys,82.1,12,Michael Deanda,Lamesa,79.38,149.69,79.38,142.88,371.95,Single-ply,SBD,M
Boys,82.1,13,Alfonzo Rubio,Anton,81.65,142.88,77.11,117.93,337.93,Single-ply,SBD,M
Boys,82.1,DQ,Sumner Wingo,Denver City,75.93,102.06,,,,Single-ply,SBD,M
Boys,89.81,DQ,Mark Martinez,Seminole,82.19,149.69,102.06,,,Single-ply,SBD,M
Boys,89.81,1,Sergio Leyva,Odessa,89.45,195.04,120.2,213.19,528.44,Single-ply,SBD,M
Boys,89.81,2,Shelby Mobley,Odessa,88.63,195.04,113.4,199.58,508.02,Single-ply,SBD,M
Boys,89.81,3,Caleb Morales,Lamesa,86.64,204.12,111.13,167.83,483.08,Single-ply,SBD,M
Boys,89.81,4,Zach Lerma,Odessa,88.9,181.44,120.2,181.44,483.08,Single-ply,SBD,M
Boys,89.81,5,Staley Arredondo,Lamesa,83.91,192.78,97.52,190.51,480.81,Single-ply,SBD,M
Boys,89.81,6,Joey Maldonado,Anton,87.82,163.29,88.45,176.9,428.64,Single-ply,SBD,M
Boys,89.81,7,Derek Fitzpatrick,Midland Greenwood,83.46,167.83,81.65,176.9,426.38,Single-ply,SBD,M
Boys,89.81,8,Rickey Harcrow,Midland Greenwood,83.64,165.56,88.45,165.56,419.57,Single-ply,SBD,M
Boys,89.81,9,Travis Baur,Midland,83.1,142.88,83.91,183.7,410.5,Single-ply,SBD,M
Boys,89.81,10,Devin Austin,Midland Lee,87.36,142.88,81.65,158.76,383.29,Single-ply,SBD,M
Boys,89.81,11,Audden Salcido,Midland Lee,84.64,142.88,86.18,149.69,378.75,Single-ply,SBD,M
Boys,89.81,DQ,Stetson Casey,Wolfforth Frenship,86.82,,,,,Single-ply,SBD,M
Boys,99.79,1,Shaquille Walters,Midland Greenwood,98.97,229.06,122.47,240.4,591.94,Single-ply,SBD,M
Boys,99.79,2,Anthony Montemayor,Lamesa,99.16,215.46,111.13,208.65,535.24,Single-ply,SBD,M
Boys,99.79,3,Matt Foster,Wolfforth Frenship,96.16,215.46,95.25,192.78,503.49,Single-ply,SBD,M
Boys,99.79,4,Corbin McCullough,Midland,93.35,154.22,124.74,183.7,462.66,Single-ply,SBD,M
Boys,99.79,5,Juan Sosa,Odessa,92.8,158.76,99.79,170.1,428.64,Single-ply,SBD,M
Boys,99.79,6,Alex Maldonado,Anton,96.62,167.83,74.84,181.44,424.11,Single-ply,SBD,M
Boys,99.79,7,Ernesto Esparza,Post,98.25,142.88,102.06,172.37,417.3,Single-ply,SBD,M
Boys,99.79,8,Phillip Wright,Midland,93.26,158.76,83.91,167.83,410.5,Single-ply,SBD,M
Boys,99.79,9,Ritchie Carrillo,Anton,97.52,167.83,83.91,158.76,410.5,Single-ply,SBD,M
Boys,99.79,10,Mason Gonzales,Roby,92.53,147.42,102.06,158.76,408.23,Single-ply,SBD,M
Boys,99.79,11,Eldon Niblett,Midland Greenwood,95.89,165.56,99.79,142.88,408.23,Single-ply,SBD,M
Boys,99.79,12,Hector Gonzales,Denver City,94.98,142.88,95.25,158.76,396.89,Single-ply,SBD,M
Boys,99.79,13,Grant Caravelli,Wolfforth Frenship,99.43,151.95,74.84,161.03,387.82,Single-ply,SBD,M
Boys,99.79,14,Matt Cardenas,Wolfforth Frenship,98.43,113.4,102.06,136.08,351.53,Single-ply,SBD,M
Boys,109.77,15,Dustin Smith,Midland Greenwood,99.97,113.4,74.84,145.15,333.39,Single-ply,SBD,M
Boys,109.77,1,Daniel Montez,Roby,108.86,265.35,179.17,226.8,671.32,Single-ply,SBD,M
Boys,109.77,2,James Iglesias,Lamesa,105.32,251.74,131.54,249.48,632.76,Single-ply,SBD,M
Boys,109.77,3,Austin Betancourt,Seminole,108.05,204.12,111.13,181.44,496.68,Single-ply,SBD,M
Boys,109.77,4,Dale Diaz,Post,107.5,206.38,111.13,163.29,480.81,Single-ply,SBD,M
Boys,109.77,5,Victor Perez,Lamesa,109.13,185.97,104.33,190.51,480.81,Single-ply,SBD,M
Boys,109.77,6,Matt Williams,Midland,108.23,151.95,102.06,181.44,435.45,Single-ply,SBD,M
Boys,109.77,7,Devin Jordan #1,Wolfforth Frenship,105.6,176.9,92.99,158.76,428.64,Single-ply,SBD,M
Boys,109.77,8,Dax Cave,Midland Greenwood,109.04,174.63,83.91,154.22,412.77,Single-ply,SBD,M
Boys,109.77,9,Collin Teale,Midland,100.43,140.61,90.72,174.63,405.97,Single-ply,SBD,M
Boys,124.74,1,Brandon Wright,Midland,111.86,244.94,142.88,260.82,648.64,Single-ply,SBD,M
Boys,124.74,2,Emiliano Renteria,Lamesa,123.1,242.67,129.27,238.14,610.08,Single-ply,SBD,M
Boys,124.74,3,Eric Villegas,Midland,111.04,238.14,120.2,226.8,585.13,Single-ply,SBD,M
Boys,124.74,4,Charles Hunt,Midland,119.66,192.78,115.67,197.31,505.76,Single-ply,SBD,M
Boys,124.74,5,Lelton Mosley,Midland Lee,117.93,195.04,111.13,188.24,494.42,Single-ply,SBD,M
Boys,124.74,6,Hugo Sanchez,Odessa,111.95,158.76,106.59,181.44,446.79,Single-ply,SBD,M
Boys,124.74,7,Eduardo Lizalde,Odessa,113.4,179.17,102.06,145.15,426.38,Single-ply,SBD,M
Boys,124.74,8,Tommy Sotelo,Odessa,123.1,142.88,102.06,163.29,408.23,Single-ply,SBD,M
Boys,124.74,9,O'Shae Grant,Wolfforth Frenship,117.21,181.44,74.84,145.15,401.43,Single-ply,SBD,M
Boys,124.74,10,Reid McIlwain,Lamesa,121.11,140.61,92.99,165.56,399.16,Single-ply,SBD,M
Boys,124.74+,1,Jesse Garza,Midland Lee,130.54,285.76,174.63,233.6,694,Single-ply,SBD,M
Boys,124.74+,2,James Martinez #4,Midland,135.9,249.48,145.15,233.6,628.23,Single-ply,SBD,M
Boys,124.74+,3,Taylor York,Wolfforth Frenship,136.17,244.94,129.27,229.06,603.28,Single-ply,SBD,M
Boys,124.74+,4,Freddie Savage,Wolfforth Frenship,125.65,233.6,149.69,215.46,598.74,Single-ply,SBD,M
Boys,124.74+,5,Jordan Copeland,Midland,140.07,226.8,129.27,213.19,569.26,Single-ply,SBD,M
Boys,124.74+,6,Rudy Flores,Midland Lee,126.92,204.12,136.08,192.78,532.97,Single-ply,SBD,M
Boys,124.74+,7,Todd Garner,Wolfforth Frenship,129.09,210.92,136.08,181.44,528.44,Single-ply,SBD,M
Boys,124.74+,8,Adrian Adame,Midland,138.62,192.78,129.27,185.97,508.02,Single-ply,SBD,M
Boys,124.74+,DQ,Cameron Wesley,Midland,127.73,224.53,129.27,,,Single-ply,SBD,M
