Division,WeightClassKg,Place,Name,Team,BodyweightKg,Best3SquatKg,Best3BenchKg,Best3DeadliftKg,TotalKg,Equipment,Event,Sex,BirthDate
Boys,51.71,1,Payton Rhodes,Hart,51.07,104.33,70.31,122.47,297.1,Single-ply,SBD,M,
Boys,51.71,2,Alejandro Diaz,Hart,51.35,102.06,45.36,136.08,283.5,Single-ply,SBD,M,
Boys,51.71,3,Braden Amaya,Amarillo Highland Park,51.44,81.65,49.9,90.72,222.26,Single-ply,SBD,M,
Boys,51.71,4,Benjamin Perez,Amarillo Highland Park,47.9,77.11,34.02,90.72,201.85,Single-ply,SBD,M,
Boys,51.71,DQ,Rodie Mayse,Amarillo Highland Park,48.53,,,,,Single-ply,SBD,M,
Boys,51.71,NS,Juan Trejo,Friona,,,,,,Single-ply,SBD,M,
Boys,55.79,1,Nathan Flores,Friona,52.44,120.2,56.7,149.69,326.59,Single-ply,SBD,M,
Boys,55.79,2,Gio Ponce,Friona,55.79,131.54,70.31,113.4,315.25,Single-ply,SBD,M,
Boys,59.87,1,Jose Herrera,Amarillo Highland Park,59.69,136.08,92.99,145.15,374.21,Single-ply,SBD,M,
Boys,59.87,2,Johnson Phan,Amarillo Highland Park,59.69,142.88,61.23,154.22,358.34,Single-ply,SBD,M,
Boys,59.87,3,Dio Ponce,Friona,58.33,131.54,90.72,120.2,342.46,Single-ply,SBD,M,
Boys,59.87,4,Mario Bautista,Friona,58.97,115.67,81.65,117.93,315.25,Single-ply,SBD,M,
Boys,59.87,5,Xuan Garcia,Friona,59.87,115.67,61.23,124.74,301.64,Single-ply,SBD,M,
Boys,59.87,6,Gael Garcia,Friona,56.7,113.4,58.97,90.72,263.08,Single-ply,SBD,M,
Boys,59.87,7,Jace Middleton,Memphis,57.06,68.04,38.56,63.5,170.1,Single-ply,SBD,M,
Boys,59.87,NS,Connor Holland,Borger,,,,,,Single-ply,SBD,M,
Boys,67.13,1,Riley Tiemann,Vega,67.13,174.63,97.52,192.78,464.93,Single-ply,SBD,M,
Boys,67.13,2,Jeremiah Diaz,Friona,66.59,188.24,102.06,172.37,462.66,Single-ply,SBD,M,
Boys,67.13,3,Josh Pavez,Panhandle,66.59,142.88,86.18,145.15,374.21,Single-ply,SBD,M,
Boys,67.13,4,Aaron Salinas,Friona,67.13,127.01,49.9,145.15,322.05,Single-ply,SBD,M,
Boys,67.13,5,Rhett Caison,Clarendon,66.13,102.06,79.38,138.35,319.78,Single-ply,SBD,M,
Boys,67.13,6,Zach Baze,Panhandle,66.77,102.06,74.84,136.08,312.98,Single-ply,SBD,M,
Boys,67.13,7,Whitman Martin,Panhandle,64.05,111.13,68.04,117.93,297.1,Single-ply,SBD,M,
Boys,67.13,NS,Marcus Allen,Borger,,,,,,Single-ply,SBD,M,
Boys,74.84,1,Brady Tiemann,Vega,67.31,174.63,106.59,183.7,464.93,Single-ply,SBD,M,
Boys,74.84,2,Stewart Skiles,Vega,70.03,183.7,92.99,181.44,458.13,Single-ply,SBD,M,
Boys,74.84,3,Kevin Lucatero,Friona,73.12,111.13,83.91,165.56,360.61,Single-ply,SBD,M,
Boys,74.84,4,Tony Rodriguez #4,Friona,70.58,127.01,68.04,115.67,310.71,Single-ply,SBD,M,
Boys,74.84,5,Bobby Luna,Childress,70.76,115.67,70.31,102.06,288.03,Single-ply,SBD,M,
Boys,74.84,6,Caden Bunker,Friona,70.94,97.52,56.7,99.79,254.01,Single-ply,SBD,M,
Boys,74.84,7,Gabe Abarea,Friona,71.94,90.72,47.63,97.52,235.87,Single-ply,SBD,M,
Boys,74.84,DQ,Tony Sanchez,Amarillo Highland Park,70.31,142.88,,,,Single-ply,SBD,M,
Boys,74.84,DQ,Donavon Cardenas,Amarillo Highland Park,72.94,,,,,Single-ply,SBD,M,
Boys,74.84,DQ,Lee Savage,Memphis,74.12,,,,,Single-ply,SBD,M,
Boys,74.84,NS,Cade Clements,Borger,,,,,,Single-ply,SBD,M,
Boys,74.84,NS,Darin Rodriguez,Amarillo Highland Park,,,,,,Single-ply,SBD,M,
Boys,74.84,NS,Rome Polanco,Borger,,,,,,Single-ply,SBD,M,
Boys,82.1,1,Alex Clements,Borger,81.1,165.56,92.99,213.19,471.74,Single-ply,SBD,M,
Boys,82.1,2,Roger Palacios,Friona,80.1,183.7,97.52,181.44,462.66,Single-ply,SBD,M,
Boys,82.1,3,Jax Ferrel,Memphis,77.29,156.49,111.13,183.7,451.32,Single-ply,SBD,M,
Boys,82.1,4,Aiden Harris,Panhandle,77.29,138.35,77.11,151.95,367.41,Single-ply,SBD,M,
Boys,82.1,5,Mathew Dimas,Friona,82.1,131.54,72.57,140.61,344.73,Single-ply,SBD,M,
Boys,82.1,6,David Espinosa,Memphis,77.38,127.01,72.57,136.08,335.66,Single-ply,SBD,M,
Boys,82.1,DQ,Harley Crary,Amarillo Highland Park,78.56,,,,,Single-ply,SBD,M,
Boys,82.1,DQ,Davonte Burch,Amarillo Highland Park,78.83,,,,,Single-ply,SBD,M,
Boys,89.81,1,Ezequiel Fernandez,Borger,88.09,138.35,88.45,158.76,385.55,Single-ply,SBD,M,
Boys,89.81,2,Hayden Forbes,Panhandle,85.91,131.54,77.11,147.42,356.07,Single-ply,SBD,M,
Boys,89.81,3,Jacob Rando,Friona,87,120.2,90.72,142.88,353.8,Single-ply,SBD,M,
Boys,89.81,4,Gannon Broussaro,Clarendon,89.36,81.65,58.97,106.59,247.21,Single-ply,SBD,M,
Boys,89.81,5,Anthony Diaz,Friona,86.91,88.45,56.7,97.52,242.67,Single-ply,SBD,M,
Boys,89.81,DQ,Jett Jones,Childress,83.55,,,,,Single-ply,SBD,M,
Boys,89.81,NS,Jonathan Dandridge,Childress,,,,,,Single-ply,SBD,M,
Boys,99.79,1,Aj Thompson,Panhandle,94.08,158.76,111.13,170.1,439.98,Single-ply,SBD,M,
Boys,99.79,2,Cade Hood,Vega,97.25,165.56,97.52,170.1,433.18,Single-ply,SBD,M,
Boys,99.79,3,Anthony Abarea,Friona,98.7,149.69,74.84,147.42,371.95,Single-ply,SBD,M,
Boys,99.79,4,Elijah Robledo,Friona,95.62,127.01,70.31,122.47,319.78,Single-ply,SBD,M,
Boys,109.77,1,Jaziel Torres,Borger,109.77,249.48,165.56,204.12,619.15,Single-ply,SBD,M,
Boys,109.77,2,Ivan Perez,Amarillo Highland Park,109.32,199.58,115.67,219.99,535.24,Single-ply,SBD,M,
Boys,109.77,3,Daniel Byers,Panhandle,105.96,183.7,124.74,165.56,474,Single-ply,SBD,M,
Boys,109.77,4,Brayden Forbes,Panhandle,104.51,185.97,117.93,167.83,471.74,Single-ply,SBD,M,
Boys,109.77,5,Jacob Hernandez,Vega,106.96,142.88,65.77,145.15,353.8,Single-ply,SBD,M,
Boys,109.77,NS,Landen Lasley,Borger,,,,,,Single-ply,SBD,M,
Boys,124.74,1,Cody Mays,Vega,120.75,219.99,142.88,215.46,578.33,Single-ply,SBD,M,
Boys,124.74,2,Jason Champlin,Amarillo Highland Park,113.4,204.12,117.93,226.8,548.85,Single-ply,SBD,M,
Boys,124.74,3,Bryant Lewis,Amarillo Highland Park,123.65,195.04,120.2,183.7,498.95,Single-ply,SBD,M,
Boys,124.74,4,Jake Padilla,Friona,112.4,185.97,104.33,163.29,453.59,Single-ply,SBD,M,
Boys,124.74,5,Darrell Thomas,Memphis,117.66,136.08,83.91,136.08,356.07,Single-ply,SBD,M,
Boys,124.74,NS,Michael Gonzales,Amarillo Highland Park,,,,,,Single-ply,SBD,M,
Boys,124.74+,1,Vincent Vaquera,Clarendon,132.36,181.44,108.86,181.44,471.74,Single-ply,SBD,M,
Boys,124.74+,NS,Damarco Castellon,Amarillo Highland Park,,,,,,Single-ply,SBD,M,
