Place,Name,BirthDate,Sex,State,Division,Equipment,BodyweightKg,WeightClassKg,Squat1Kg,Squat2Kg,Squat3Kg,Best3SquatKg,Bench1Kg,Bench2Kg,Bench3Kg,Best3BenchKg,Deadlift1Kg,Deadlift2Kg,Deadlift3Kg,Best3DeadliftKg,TotalKg,Event
1,Nomy Vandette,,F,QC,Juniors,Raw,57.3,63,97.5,102.5,107.5,107.5,57.5,60,-62.5,60,107.5,-115,-115,107.5,275,SBD
1,Pascale Girard,,F,QC,Juniors,Raw,66.75,69,115,122.5,130,130,62.5,67.5,70,70,120,127.5,135,135,335,SBD
1,Sandra Gagnon,,F,QC,Open,Raw,74.35,76,105,110,115,115,57.5,60,62.5,62.5,122.5,130,135,135,312.5,SBD
1,Bruno Germain,,M,QC,Juniors,Raw,70.75,74,135,145,155,155,87.5,95,-100,95,170,185,200,200,450,SBD
1,Noah Dupuis,,M,QC,Juniors,Raw,98.95,105,190,202.5,-210,202.5,122.5,130,-135,130,225,240,247.5,247.5,580,SBD
2,Ludovic Deniger,,M,QC,Juniors,Raw,96.1,105,-172.5,172.5,185,185,100,-105,105,105,210,225,-232.5,225,515,SBD
1,Samuel St-Pierre,,M,QC,Juniors,Raw,141.7,120+,227.5,242.5,252.5,252.5,145,155,160,160,227.5,242.5,252.5,252.5,665,SBD
1,Nil Vallires,,M,QC,Open,Raw,131.8,120+,225,242.5,250,250,115,122.5,130,130,212.5,227.5,240,240,620,SBD
