﻿BDFPF BK. CHAMP BEL SQUAT UNEQ 2014
BK. SQUAT EQUIPPED 2014
1                                     67,5 KG Dierckx              Liam              M    Planet Fitness   19 T3          65,5   110   120     130             96,98
1                                     75 KG Vandenbosch    Kevin                     M    Planet Fitness   19 T3          74,2   120   127,5   -130            85,438
1                                     75 KG Vanhee                 Emmerik   M       Isogym                24 SR          73,9   180   190     200             134,46
2                                     75 KG Vanhaverbeke           Kenny         M   KBBC                  30 SR          74,2   125   130     -135            87,113
1                                     82,5 KG Sudarminto           Indra             M    Planet Fitness   23 JR          78,0   270   290     305             196,66
1                                     90 KG Verbeke                Beny          M   Isogym                49 M2          88,8   225   -245    245    -257,5   144,57
1                                     100 KG Goethals              Dries         M   KBBC                  29 SR          94,2   75                            42,78
1                                     125 KG Golsteyn              Bart          M   Isogym                49 M2  120,0          170   -190    -200            89,59
Nat Record                            World Record
European Record                       Best Lifter                  Drugtested
14 Dec  2014 Merksem
