Division,WeightClassKg,Place,Name,Team,BodyweightKg,Best3SquatKg,Best3BenchKg,Best3DeadliftKg,TotalKg,Equipment,Event,Sex
Boys,51.71,1,Blayze Ferguson,Frisco Heritage,50.8,104.33,81.65,106.59,292.57,Single-ply,SBD,M
Boys,51.71,2,Sam Hamidi,Frisco Lebanon Trail,51.71,102.06,49.9,106.59,258.55,Single-ply,SBD,M
Boys,51.71,3,Connor Gressett,Frisco Wakeland,51.07,97.52,43.09,106.59,247.21,Single-ply,SBD,M
Boys,51.71,4,Britton Despain,Little Elm,50.89,88.45,,,88.45,Single-ply,S,M
Boys,51.71,DQ,Greyson Hickey,Frisco Reedy,50.53,,,,,Single-ply,S,M
Boys,51.71,DQ,Jake Thomas,Frisco Lone Star,41.37,,,,,Single-ply,S,M
Boys,55.79,1,Calvin Sall,Frisco Reedy,54.88,124.74,77.11,131.54,333.39,Single-ply,SBD,M
Boys,55.79,2,Rolando Guajardo,Frisco Centennial,54.61,133.81,63.5,133.81,331.12,Single-ply,SBD,M
Boys,55.79,3,Sami Qawasmi,Frisco Reedy,55.7,108.86,58.97,124.74,292.57,Single-ply,SBD,M
Boys,59.87,1,Will Best,Frisco Wakeland,58.92,151.95,68.04,158.76,378.75,Single-ply,SBD,M
Boys,59.87,2,Daniel Oquendo,Little Elm,59.19,142.88,63.5,142.88,349.27,Single-ply,SBD,M
Boys,59.87,3,Jesus Ponce,Frisco Lebanon Trail,57.56,133.81,70.31,142.88,347,Single-ply,SBD,M
Boys,59.87,4,Jared Banda,Frisco Reedy,56.34,113.4,61.23,158.76,333.39,Single-ply,SBD,M
Boys,59.87,5,Trevor Adkins,Frisco Lebanon Trail,59.65,113.4,68.04,149.69,331.12,Single-ply,SBD,M
Boys,59.87,6,Garrett Carter,Frisco Wakeland,55.97,88.45,52.16,120.2,260.82,Single-ply,SBD,M
Boys,67.13,1,Josh Fieferik,Frisco Reedy,66.18,183.7,113.4,174.63,471.74,Single-ply,SBD,M
Boys,67.13,2,Reid Morris,Frisco Wakeland,62.41,136.08,72.57,140.61,349.27,Single-ply,SBD,M
Boys,67.13,3,Dylan Shawver,Little Elm,61.14,117.93,86.18,127.01,331.12,Single-ply,SBD,M
Boys,67.13,4,Noah Woodward,McKinney,65.63,142.88,,,142.88,Single-ply,S,M
Boys,67.13,5,Micah Chism,Frisco Heritage,67.04,142.88,,,142.88,Single-ply,S,M
Boys,67.13,DQ,Corey Norman,Frisco Heritage,67.13,,,,,Single-ply,S,M
Boys,67.13,DQ,Jordan Hogg,Frisco Lebanon Trail,63.78,,,,,Single-ply,S,M
Boys,67.13,DQ,Princeton Parker,Frisco Lebanon Trail,67.13,,,,,Single-ply,S,M
Boys,67.13,DQ,Edward Zeng,Frisco Liberty,65.32,,,,,Single-ply,S,M
Boys,67.13,NS,Gavin Carroll,Frisco Wakeland,,,,,,Single-ply,S,M
Boys,74.84,1,Justin Smith #25,Frisco Centennial,74.34,204.12,113.4,208.65,526.17,Single-ply,SBD,M
Boys,74.84,2,Josh Foster,Frisco Lone Star,70.67,176.9,97.52,190.51,464.93,Single-ply,SBD,M
Boys,74.84,3,Fabrizio Perez,Frisco Centennial,73.21,167.83,99.79,188.24,455.86,Single-ply,SBD,M
Boys,74.84,4,Roger Hubbard,Frisco Lone Star,71.94,174.63,88.45,188.24,451.32,Single-ply,SBD,M
Boys,74.84,5,Jonathan Lis,Frisco Liberty,72.03,165.56,90.72,190.51,446.79,Single-ply,SBD,M
Boys,74.84,6,Vincent Rivera,McKinney North,72.35,147.42,99.79,170.1,417.3,Single-ply,SBD,M
Boys,74.84,7,Jaxon Holloman,Frisco Heritage,73.26,154.22,95.25,151.95,401.43,Single-ply,SBD,M
Boys,74.84,8,Gireesh Daggupati,Frisco Heritage,67.49,124.74,72.57,156.49,353.8,Single-ply,SBD,M
Boys,74.84,9,Diego Diaz,Frisco Lone Star,73.26,115.67,83.91,131.54,331.12,Single-ply,SBD,M
Boys,74.84,10,Vestal Gunner,Frisco Liberty,74.03,102.06,58.97,108.86,269.89,Single-ply,SBD,M
Boys,74.84,11,Adam Washington,Frisco Heritage,71.03,161.03,97.52,,258.55,Single-ply,SB,M
Boys,74.84,12,Jordan Etienne,Frisco Lone Star,71.4,156.49,95.25,,251.74,Single-ply,SB,M
Boys,74.84,13,Kelvin Thomas,McKinney,68.31,170.1,68.04,,238.14,Single-ply,SB,M
Boys,74.84,14,Charlie Burkhart,Frisco Wakeland,72.98,179.17,,,179.17,Single-ply,S,M
Boys,74.84,15,Aiden Reiter,Frisco Lebanon Trail,74.43,142.88,,,142.88,Single-ply,S,M
Boys,74.84,16,David Perkins,Frisco Lebanon Trail,74.8,136.08,,,136.08,Single-ply,S,M
Boys,74.84,17,Alex Taylor,McKinney Boyd,71.49,113.4,,,113.4,Single-ply,S,M
Boys,74.84,NS,Nate Jackson,McKinney Boyd,,,,,,Single-ply,S,M
Boys,74.84,DQ,Charles Fuentes,Little Elm,74.84,,,,,Single-ply,S,M
Boys,74.84,NS,Corbin Lowrance,Frisco,,,,,,Single-ply,S,M
Boys,74.84,DQ,Mac Landeau,Frisco Wakeland,73.48,,,,,Single-ply,S,M
Boys,74.84,DQ,Zachary Erlewein,Frisco Reedy,74.53,,,,,Single-ply,S,M
Boys,82.1,1,Hunter Chae,McKinney North,77.29,183.7,113.4,199.58,496.68,Single-ply,SBD,M
Boys,82.1,2,Andrew Nguyen #3,McKinney North,80.42,183.7,102.06,190.51,476.27,Single-ply,SBD,M
Boys,82.1,3,Connor Smith #3,Frisco Centennial,77.79,185.97,113.4,172.37,471.74,Single-ply,SBD,M
Boys,82.1,4,Oliq Kirksey,McKinney Boyd,77.84,149.69,102.06,215.46,467.2,Single-ply,SBD,M
Boys,82.1,5,Jonathan Vaquera,Frisco Wakeland,81.6,172.37,102.06,192.78,467.2,Single-ply,SBD,M
Boys,82.1,6,Dylan Emery,Frisco,78.15,161.03,115.67,176.9,453.59,Single-ply,SBD,M
Boys,82.1,7,Cannon Roeder,Frisco Wakeland,76.75,183.7,102.06,161.03,446.79,Single-ply,SBD,M
Boys,82.1,8,Tymothy Martin,Frisco Reedy,78.56,179.17,90.72,163.29,433.18,Single-ply,SBD,M
Boys,82.1,9,Jared Musser,Frisco Reedy,81.28,161.03,106.59,147.42,415.04,Single-ply,SBD,M
Boys,82.1,10,Woodson Andrews,McKinney Boyd,81.78,147.42,99.79,163.29,410.5,Single-ply,SBD,M
Boys,82.1,11,Hassan Khaled,Frisco Liberty,80.01,124.74,79.38,151.95,356.07,Single-ply,SBD,M
Boys,82.1,12,Stone Slovak,Frisco Lebanon Trail,79.2,154.22,,,154.22,Single-ply,S,M
Boys,82.1,DQ,Connor Wolfe,Frisco Heritage,82.1,,,,,Single-ply,S,M
Boys,82.1,DQ,Nick Green,Little Elm,81.87,,,,,Single-ply,S,M
Boys,89.81,1,Jacob Veres,Frisco Wakeland,89.22,226.8,142.88,197.31,566.99,Single-ply,SBD,M
Boys,89.81,2,Dexter Green,Frisco Liberty,84.73,204.12,140.61,217.72,562.45,Single-ply,SBD,M
Boys,89.81,3,Jaden Ramey,McKinney Boyd,86.73,208.65,127.01,210.92,546.58,Single-ply,SBD,M
Boys,89.81,4,Troy Parker,Frisco Centennial,88.9,188.24,120.2,192.78,501.22,Single-ply,SBD,M
Boys,89.81,5,Hudson Halbert,Frisco Reedy,85.5,192.78,117.93,188.24,498.95,Single-ply,SBD,M
Boys,89.81,6,Trey Roberts,McKinney North,89.13,188.24,104.33,190.51,483.08,Single-ply,SBD,M
Boys,89.81,7,Jd Stephens,Frisco Centennial,85.87,188.24,106.59,179.17,474,Single-ply,SBD,M
Boys,89.81,8,Jaylan Ford,Frisco Lone Star,89.31,179.17,106.59,174.63,460.4,Single-ply,SBD,M
Boys,89.81,9,Cody Selby,Frisco,88.41,151.95,88.45,183.7,424.11,Single-ply,SBD,M
Boys,89.81,10,Chase Dogan,Frisco Lebanon Trail,83.14,129.27,90.72,170.1,390.09,Single-ply,SBD,M
Boys,89.81,11,Sam Sabatino,Frisco Wakeland,84.78,174.63,,,174.63,Single-ply,S,M
Boys,89.81,DQ,Garrett Brooks,Frisco,89.81,,,,,Single-ply,S,M
Boys,99.79,1,Isaiah Foster,Frisco Lone Star,94.26,201.85,145.15,190.51,537.51,Single-ply,SBD,M
Boys,99.79,2,Matt Kizlyk,McKinney,98.43,226.8,99.79,204.12,530.7,Single-ply,SBD,M
Boys,99.79,3,Trey Schlimk,Frisco Wakeland,93.89,215.46,115.67,195.04,526.17,Single-ply,SBD,M
Boys,99.79,4,James Ogbeide,Frisco Centennial,99.34,204.12,108.86,206.38,519.36,Single-ply,SBD,M
Boys,99.79,5,Cody Gonzales,Frisco Heritage,99.2,204.12,131.54,181.44,517.1,Single-ply,SBD,M
Boys,99.79,6,Kamari Wilkerson,Frisco,95.53,188.24,111.13,208.65,508.02,Single-ply,SBD,M
Boys,99.79,7,Junior Tekodo,Little Elm,91.72,174.63,115.67,204.12,494.42,Single-ply,SBD,M
Boys,99.79,8,Zach McMahon,McKinney North,93.71,165.56,92.99,219.99,478.54,Single-ply,SBD,M
Boys,99.79,9,Jeren Vernon,Frisco,95.66,147.42,117.93,156.49,421.84,Single-ply,SBD,M
Boys,99.79,10,Mason Terry,Frisco Liberty,92.94,154.22,81.65,151.95,387.82,Single-ply,SBD,M
Boys,99.79,NS,Cameron Maddox,McKinney Boyd,,,,,,Single-ply,SBD,M
Boys,109.77,1,Jacob Thompson,Frisco,103.42,244.94,131.54,222.26,598.74,Single-ply,SBD,M
Boys,109.77,2,Clay Patterson #2,Frisco Reedy,105.28,229.06,133.81,226.8,589.67,Single-ply,SBD,M
Boys,109.77,3,Steven Pineda,Frisco Lone Star,106.73,242.67,133.81,183.7,560.19,Single-ply,SBD,M
Boys,109.77,4,Jeremy LaFoucade,McKinney,107.77,226.8,108.86,215.46,551.11,Single-ply,SBD,M
Boys,109.77,5,Brandon McClarnon,Frisco Centennial,103.83,222.26,117.93,190.51,530.7,Single-ply,SBD,M
Boys,109.77,6,Brayden Hughes,Frisco Centennial,107.59,204.12,127.01,188.24,519.36,Single-ply,SBD,M
Boys,109.77,7,TJ Ford,Frisco,104.92,158.76,117.93,181.44,458.13,Single-ply,SBD,M
Boys,109.77,8,Dalton Wilcox,Little Elm,109.27,170.1,113.4,170.1,453.59,Single-ply,SBD,M
Boys,109.77,9,Austin Markiewicz,McKinney North,108.45,151.95,102.06,181.44,435.45,Single-ply,SBD,M
Boys,109.77,DQ,David Hall,Frisco,109.77,,,,,Single-ply,SBD,M
Boys,124.74,1,Ben Perry,Frisco Independence,110.45,235.87,117.93,210.92,564.72,Single-ply,SBD,M
Boys,124.74,2,Maason Horton,Frisco Lone Star,110.68,208.65,133.81,215.46,557.92,Single-ply,SBD,M
Boys,124.74,3,Dreylan Washington,Frisco,111.22,195.04,142.88,204.12,542.04,Single-ply,SBD,M
Boys,124.74,4,Cameron Coker,McKinney North,119.93,199.58,149.69,188.24,537.51,Single-ply,SBD,M
Boys,124.74,5,Seth Maynard,Little Elm,116.75,204.12,104.33,204.12,512.56,Single-ply,SBD,M
Boys,124.74,6,Nathan Deason,Frisco Lone Star,117.16,204.12,111.13,188.24,503.49,Single-ply,SBD,M
Boys,124.74,7,Juan Verdines,McKinney,117.44,185.97,108.86,197.31,492.15,Single-ply,SBD,M
Boys,124.74,8,Adrian Gallegos,McKinney,116.35,192.78,113.4,181.44,487.61,Single-ply,SBD,M
Boys,124.74,9,Damien Stuver,Frisco Liberty,115.17,215.46,117.93,147.42,480.81,Single-ply,SBD,M
Boys,124.74,10,Connor Krodel,Frisco Independence,109.95,172.37,127.01,170.1,469.47,Single-ply,SBD,M
Boys,124.74,11,Landon Teel,McKinney North,114.58,197.31,129.27,,326.59,Single-ply,SB,M
Boys,124.74,12,Wesley Thrasher,Frisco Centennial,123.6,190.51,120.2,,310.71,Single-ply,SB,M
Boys,124.74,DQ,Marcus Ramseys,McKinney,124.74,,,,,Single-ply,SB,M
Boys,124.74,DQ,Ethan Lane,McKinney,124.74,,,,,Single-ply,SB,M
Boys,124.74+,1,Izeya Floyd,Frisco Reedy,144.61,294.84,158.76,272.16,725.75,Single-ply,SBD,M
Boys,124.74+,2,Tucker Rowland,Frisco Heritage,137.21,247.21,195.04,231.33,673.58,Single-ply,SBD,M
Boys,124.74+,3,Dylan Harris,Frisco Lone Star,126.28,215.46,131.54,215.46,562.45,Single-ply,SBD,M
Boys,124.74+,4,Deondrey Fortman,McKinney,178.58,226.8,124.74,192.78,544.31,Single-ply,SBD,M
Boys,124.74+,5,Kris Estep,McKinney,153.22,181.44,124.74,224.53,530.7,Single-ply,SBD,M
Boys,124.74+,6,Joe Crane,Frisco Centennial,135.53,199.58,104.33,213.19,517.1,Single-ply,SBD,M
Boys,124.74+,DQ,Josh Neal,Frisco,127.01,,,,,Single-ply,SBD,M
Boys,124.74+,DQ,Cameron Jones,Frisco Lone Star,128.59,,,,,Single-ply,SBD,M
Boys,124.74+,NS,Justin Stewart,McKinney Boyd,,,,,,Single-ply,SBD,M
