Division,WeightClassKg,Place,Name,Team,BodyweightKg,Best3SquatKg,Best3BenchKg,Best3DeadliftKg,TotalKg,Equipment,Event,Sex,BirthDate
Boys,51.71,1,Jacob Guerrero,Yorktown,50.53,161.03,90.72,158.76,410.5,Single-ply,SBD,M,
Boys,51.71,2,Isrrael Rosas,Bruceville-Eddy,51.71,154.22,77.11,161.03,392.36,Single-ply,SBD,M,
Boys,51.71,3,Michael Benavides,Agua Dulce,50.62,158.76,77.11,154.22,390.09,Single-ply,SBD,M,
Boys,51.71,4,Damion Gonzales,Lockney,48.44,154.22,74.84,154.22,383.29,Single-ply,SBD,M,
Boys,51.71,5,Eric Valencia,Olton,50.62,161.03,79.38,136.08,376.48,Single-ply,SBD,M,
Boys,51.71,6,Corey Michalek,Axtell,51.44,131.54,77.11,145.15,353.8,Single-ply,SBD,M,
Boys,51.71,7,Imanol Mendez,Louise,50.08,122.47,58.97,138.35,319.78,Single-ply,SBD,M,
Boys,51.71,8,Christavian Hafford,San Augustine,50.44,106.59,58.97,127.01,292.57,Single-ply,SBD,M,
Boys,51.71,9,Cooper Talley,Quanah,49.71,106.59,56.7,127.01,290.3,Single-ply,SBD,M,
Boys,51.71,10,Gentry Doyle,Flatonia,50.44,111.13,63.5,102.06,276.69,Single-ply,SBD,M,
Boys,51.71,11,Lane Turner,Gladewater Union Grove,49.9,104.33,52.16,113.4,269.89,Single-ply,SBD,M,
Boys,51.71,12,Tyler Slimp,Alvord,50.53,86.18,56.7,113.4,256.28,Single-ply,SBD,M,
Boys,55.79,1,Lane Smith,Ozona,54.07,170.1,97.52,176.9,444.52,Single-ply,SBD,M,
Boys,55.79,2,David Perez,Ben Bolt-Palito Blanco,54.07,167.83,102.06,172.37,442.25,Single-ply,SBD,M,
Boys,55.79,3,Radek Spatz,Miles,54.88,170.1,86.18,174.63,430.91,Single-ply,SBD,M,
Boys,55.79,4,Kadin Daniels,Maud,54.98,145.15,88.45,176.9,410.5,Single-ply,SBD,M,
Boys,55.79,5,Caden Rocha,Panhandle,55.16,165.56,79.38,154.22,399.16,Single-ply,SBD,M,
Boys,55.79,6,Wyatt Abbott,Alvord,55.25,145.15,81.65,156.49,383.29,Single-ply,SBD,M,
Boys,55.79,7,Herschel Conway,Somerville,53.61,142.88,92.99,145.15,381.02,Single-ply,SBD,M,
Boys,55.79,8,Rio Garcia,Deweyville,54.61,136.08,92.99,133.81,362.87,Single-ply,SBD,M,
Boys,55.79,9,Kyndle Esparza,Seagraves,54.79,138.35,70.31,149.69,358.34,Single-ply,SBD,M,
Boys,55.79,10,Jagger Allen,Garrison,54.79,127.01,86.18,145.15,358.34,Single-ply,SBD,M,
Boys,55.79,11,Dylon Myrow,Chico,53.34,113.4,72.57,131.54,317.51,Single-ply,SBD,M,
Boys,55.79,DQ,Garrett Kwast,Axtell,55.79,120.2,58.97,,,Single-ply,SBD,M,
Boys,55.79,DQ,Florencio Esquivel,San Saba,53.07,,,,,Single-ply,SBD,M,
Boys,59.87,1,Brennan Riker,Post,58.24,201.85,104.33,181.44,487.61,Single-ply,SBD,M,
Boys,59.87,2,Aidon Olivas,Sundown,59.69,185.97,99.79,188.24,474,Single-ply,SBD,M,
Boys,59.87,3,Verkobe Woodberry,Somerville,58.42,172.37,88.45,192.78,453.59,Single-ply,SBD,M,
Boys,59.87,4,Tucker Abbott,Alvord,58.79,161.03,99.79,179.17,439.98,Single-ply,SBD,M,
Boys,59.87,5,David Davila,Snook,59.24,170.1,83.91,183.7,437.72,Single-ply,SBD,M,
Boys,59.87,6,Jace Lindsay,Beckville,58.6,158.76,92.99,172.37,424.11,Single-ply,SBD,M,
Boys,59.87,7,Javier Ontiveros,Refugio,59.42,142.88,92.99,172.37,408.23,Single-ply,SBD,M,
Boys,59.87,8,Gavin Gutierrez,Runge,58.33,145.15,83.91,167.83,396.89,Single-ply,SBD,M,
Boys,59.87,9,Adan Huron,San Saba,59.87,129.27,86.18,163.29,378.75,Single-ply,SBD,M,
Boys,59.87,10,Brenden Peel,San Saba,57.61,142.88,79.38,142.88,365.14,Single-ply,SBD,M,
Boys,59.87,11,Michael Lane,Linden-Kildare,58.42,129.27,68.04,151.95,349.27,Single-ply,SBD,M,
Boys,59.87,DQ,Jeffery Brown,Chico,56.43,,,,,Single-ply,SBD,M,
Boys,67.13,1,Pablo Mendoza,Sundown,66.59,215.46,117.93,215.46,548.85,Single-ply,SBD,M,
Boys,67.13,2,Matthew Jimenez,Haskell,66.32,195.04,120.2,217.72,532.97,Single-ply,SBD,M,
Boys,67.13,3,Brady Tiemann,Vega,66.41,183.7,127.01,222.26,532.97,Single-ply,SBD,M,
Boys,67.13,4,Sammy Bustamante,Center Point,64.59,217.72,117.93,190.51,526.17,Single-ply,SBD,M,
Boys,67.13,5,Alex Sanchez,Kenedy,64.86,195.04,104.33,206.38,505.76,Single-ply,SBD,M,
Boys,67.13,6,Dylan Mickler,Coleman,66.68,176.9,117.93,204.12,498.95,Single-ply,SBD,M,
Boys,67.13,7,Garrett Lero,Snook,65.86,197.31,115.67,183.7,496.68,Single-ply,SBD,M,
Boys,67.13,8,Chase Compton,Alvord,66.04,199.58,111.13,181.44,492.15,Single-ply,SBD,M,
Boys,67.13,9,Vincent Miller,Gladewater Union Grove,66.59,185.97,113.4,161.03,460.4,Single-ply,SBD,M,
Boys,67.13,10,Denver Hunter,Coleman,65.77,170.1,113.4,170.1,453.59,Single-ply,SBD,M,
Boys,67.13,11,DeMarcus Jackson,Dawson,66.13,181.44,86.18,181.44,449.06,Single-ply,SBD,M,
Boys,67.13,12,Cade Watson,Deweyville,64.32,170.1,97.52,174.63,442.25,Single-ply,SBD,M,
Boys,74.84,1,Alex Carmona,Floydada,74.39,263.08,165.56,231.33,659.98,Single-ply,SBD,M,
Boys,74.84,2,Gilberto Baez,San Saba,74.21,233.6,133.81,249.48,616.89,Single-ply,SBD,M,
Boys,74.84,3,Valentin Garza,La Pryor,70.58,244.94,127.01,231.33,603.28,Single-ply,SBD,M,
Boys,74.84,4,Adrian Mata,Rocksprings,71.03,233.6,108.86,238.14,580.6,Single-ply,SBD,M,
Boys,74.84,5,Stewart Skiles,Vega,74.03,240.4,108.86,231.33,580.6,Single-ply,SBD,M,
Boys,74.84,6,Colby Tolbert,Bruceville-Eddy,74.3,233.6,124.74,188.24,546.58,Single-ply,SBD,M,
Boys,74.84,7,Claude Scales,Detroit,71.3,213.19,117.93,206.38,537.51,Single-ply,SBD,M,
Boys,74.84,8,Luis Guillen,Jewett Leon,74.84,195.04,115.67,226.8,537.51,Single-ply,SBD,M,
Boys,74.84,9,Ramiro Aguilar,Hawley,74.12,195.04,131.54,204.12,530.7,Single-ply,SBD,M,
Boys,74.84,10,Omarion Rasberry,Garrison,72.67,195.04,83.91,235.87,514.83,Single-ply,SBD,M,
Boys,74.84,11,Troy Conner,Quanah,73.75,195.04,113.4,204.12,512.56,Single-ply,SBD,M,
Boys,74.84,12,Jayke Bass,Gilmer Union Hill,73.75,181.44,136.08,195.04,512.56,Single-ply,SBD,M,
Boys,74.84,13,Max Herrera,Chilton,67.86,192.78,127.01,183.7,503.49,Single-ply,SBD,M,
Boys,82.1,1,Larson Hoffmeyer,Bosqueville,76.84,258.55,140.61,247.21,646.37,Single-ply,SBD,M,
Boys,82.1,2,Kevin Garcia,Sundown,80.1,249.48,149.69,247.21,646.37,Single-ply,SBD,M,
Boys,82.1,3,Julian Flores,La Pryor,78.02,213.19,154.22,235.87,603.28,Single-ply,SBD,M,
Boys,82.1,4,Da'Mariyea Hamilton,Dawson,80.74,231.33,129.27,242.67,603.28,Single-ply,SBD,M,
Boys,82.1,5,Aldo Vasquez,Olton,80.29,240.4,138.35,215.46,594.21,Single-ply,SBD,M,
Boys,82.1,6,Dauvo McDonald,Bosqueville,76.38,226.8,129.27,231.33,587.4,Single-ply,SBD,M,
Boys,82.1,7,Arlie Hernandez,Ozona,76.57,226.8,131.54,199.58,557.92,Single-ply,SBD,M,
Boys,82.1,8,Jake Holmes,Perrin-Whitt,81.56,192.78,142.88,215.46,551.11,Single-ply,SBD,M,
Boys,82.1,9,Ethan Rendon,Holland,80.47,204.12,124.74,204.12,532.97,Single-ply,SBD,M,
Boys,82.1,10,Waylon Vidler,Celeste,79.92,181.44,133.81,204.12,519.36,Single-ply,SBD,M,
Boys,82.1,11,Orlando Adame,Schulenburg,79.92,199.58,102.06,215.46,517.1,Single-ply,SBD,M,
Boys,82.1,DQ,Braydon Garcia,Quanah,79.47,226.8,136.08,,,Single-ply,SBD,M,
Boys,89.81,1,Hayden Kylberg,Thorndale,86.91,235.87,170.1,240.4,646.37,Single-ply,SBD,M,
Boys,89.81,2,Daniel Sambrano,La Pryor,88.54,247.21,142.88,235.87,625.96,Single-ply,SBD,M,
Boys,89.81,3,Robert Cardenas,Ben Bolt-Palito Blanco,88.72,217.72,183.7,219.99,621.42,Single-ply,SBD,M,
Boys,89.81,4,Diego Hernandez,Sundown,82.19,229.06,136.08,231.33,596.47,Single-ply,SBD,M,
Boys,89.81,5,Sergio Salinas,Ralls,82.37,222.26,127.01,238.14,587.4,Single-ply,SBD,M,
Boys,89.81,6,Dawson Daffern,Maud,83.01,181.44,127.01,219.99,528.44,Single-ply,SBD,M,
Boys,89.81,7,Jose Estrada,Strawn,89.54,217.72,124.74,183.7,526.17,Single-ply,SBD,M,
Boys,89.81,8,Jolon Garner,San Augustine,86.82,197.31,115.67,208.65,521.63,Single-ply,SBD,M,
Boys,89.81,9,Landon Yarbrough,San Saba,85.73,190.51,115.67,179.17,485.34,Single-ply,SBD,M,
Boys,89.81,10,Willie Burns,Bosqueville,87.63,176.9,129.27,170.1,476.27,Single-ply,SBD,M,
Boys,89.81,DQ,Jc Chaney,Holland,88.36,240.4,,,,Single-ply,SBD,M,
Boys,89.81,DQ,Corley Williams,Hawley,87.91,204.12,,,,Single-ply,SBD,M,
Boys,89.81,DQ,Brad Parson,Detroit,86.82,240.4,158.76,,,Single-ply,SBD,M,
Boys,99.79,1,Landin Short,San Saba,96.43,272.16,174.63,278.96,725.75,Single-ply,SBD,M,
Boys,99.79,2,Cole Boren,Post,96.52,254.01,165.56,226.8,646.37,Single-ply,SBD,M,
Boys,99.79,3,Misael Castaneda,Whiteface,97.34,254.01,149.69,240.4,644.1,Single-ply,SBD,M,
Boys,99.79,4,Lorenzo Garcia,Strawn,97.16,272.16,147.42,208.65,628.23,Single-ply,SBD,M,
Boys,99.79,5,Josh Ramirez,Flatonia,96.07,249.48,147.42,226.8,623.69,Single-ply,SBD,M,
Boys,99.79,6,Juan Perez #1,Frankston,91.08,235.87,136.08,249.48,621.42,Single-ply,SBD,M,
Boys,99.79,7,Austin Barrera,Rocksprings,90.99,254.01,124.74,215.46,594.21,Single-ply,SBD,M,
Boys,99.79,8,Nando Vargas,Kenedy,96.16,235.87,117.93,238.14,591.94,Single-ply,SBD,M,
Boys,99.79,9,Jose Molina #4,Normangee,99.34,233.6,140.61,213.19,587.4,Single-ply,SBD,M,
Boys,99.79,10,Ty Merriman,Shelbyville,98.34,215.46,129.27,201.85,546.58,Single-ply,SBD,M,
Boys,99.79,11,Hez Parker,Hawley,89.9,210.92,133.81,195.04,539.77,Single-ply,SBD,M,
Boys,99.79,DQ,Ethan LeGrande,Hamilton,94.89,,,,,Single-ply,SBD,M,
Boys,109.77,1,Marcos Gonzalez,Ben Bolt-Palito Blanco,105.51,331.12,204.12,328.85,864.09,Single-ply,SBD,M,
Boys,109.77,2,Andy Castillo,Sundown,109.04,276.69,147.42,251.74,675.85,Single-ply,SBD,M,
Boys,109.77,3,Jordan Menard,Overton,105.41,242.67,140.61,263.08,646.37,Single-ply,SBD,M,
Boys,109.77,4,Daniel Gaona III,Louise,102.42,260.82,147.42,231.33,639.57,Single-ply,SBD,M,
Boys,109.77,5,Elias Martinez,Ralls,105.32,233.6,170.1,235.87,639.57,Single-ply,SBD,M,
Boys,109.77,6,Jesse Perez,Agua Dulce,106.96,258.55,161.03,213.19,632.76,Single-ply,SBD,M,
Boys,109.77,7,Ej Tarango,Freer,106.59,267.62,131.54,215.46,614.62,Single-ply,SBD,M,
Boys,109.77,8,Eli Taylor,Shelbyville,108.23,242.67,138.35,233.6,614.62,Single-ply,SBD,M,
Boys,109.77,9,Braylon Cornish,Normangee,101.88,249.48,142.88,219.99,612.35,Single-ply,SBD,M,
Boys,109.77,10,Hunter Carter,Bruceville-Eddy,100.97,267.62,127.01,215.46,610.08,Single-ply,SBD,M,
Boys,109.77,11,Max Hopkins,Strawn,107.59,249.48,113.4,199.58,562.45,Single-ply,SBD,M,
Boys,109.77,12,Francisco Barrera,Quanah,107.5,231.33,138.35,188.24,557.92,Single-ply,SBD,M,
Boys,109.77,13,Joel Garcia,Miles,103.69,226.8,124.74,197.31,548.85,Single-ply,SBD,M,
Boys,124.74,1,Bo Thompson,Hawley,110.5,294.84,238.14,272.16,805.13,Single-ply,SBD,M,
Boys,124.74,2,Taye Perez,Post,123.1,272.16,176.9,283.5,732.55,Single-ply,SBD,M,
Boys,124.74,3,Jagger Summa,Bosqueville,115.12,278.96,165.56,272.16,716.68,Single-ply,SBD,M,
Boys,124.74,4,Joseph Luna,Kenedy,120.93,249.48,156.49,260.82,666.78,Single-ply,SBD,M,
Boys,124.74,5,James Simons,Bruceville-Eddy,116.21,274.42,161.03,229.06,664.51,Single-ply,SBD,M,
Boys,124.74,6,Landon Liles,Linden-Kildare,124.01,260.82,158.76,244.94,664.51,Single-ply,SBD,M,
Boys,124.74,7,Chris Jackson #5,Post,121.02,254.01,167.83,240.4,662.24,Single-ply,SBD,M,
Boys,124.74,8,Jon-Mychael Kirkland,Rocksprings,118.66,242.67,154.22,242.67,639.57,Single-ply,SBD,M,
Boys,124.74,9,Christopher Vasquez,Louise,122.56,272.16,124.74,238.14,635.03,Single-ply,SBD,M,
Boys,124.74,10,Canyon Cooksy,Wolfe City,113.22,281.23,138.35,210.92,630.49,Single-ply,SBD,M,
Boys,124.74,11,Bryce Raymer,Deweyville,112.94,226.8,129.27,215.46,571.53,Single-ply,SBD,M,
Boys,124.74,DQ,Troi Barrera,Quanah,116.39,226.8,124.74,,,Single-ply,SBD,M,
Boys,139.71,1,Keano Perez,Ozona,136.17,299.37,156.49,249.48,705.34,Single-ply,SBD,M,
Boys,139.71,2,Jeryd Fain,Coleman,131.63,290.3,174.63,226.8,691.73,Single-ply,SBD,M,
Boys,139.71,3,Nico Rodriguez,Sundown,129,278.96,172.37,226.8,678.12,Single-ply,SBD,M,
Boys,139.71,4,Marshall Mays,Holland,136.89,272.16,154.22,233.6,659.98,Single-ply,SBD,M,
Boys,139.71,5,Javen Diaz,Post,135.62,265.35,156.49,231.33,653.17,Single-ply,SBD,M,
Boys,139.71,6,Easton Fulton,Rosebud-Lott,129.09,235.87,156.49,247.21,639.57,Single-ply,SBD,M,
Boys,139.71,7,Michael Hare,Bosqueville,132.81,244.94,151.95,235.87,632.76,Single-ply,SBD,M,
Boys,139.71,8,Kaleb Crable,Alvord,125.55,260.82,142.88,204.12,607.81,Single-ply,SBD,M,
Boys,139.71,9,John Hester,Hawkins,126.1,215.46,154.22,231.33,601.01,Single-ply,SBD,M,
Boys,139.71,10,Ernesto Nava,Eldorado,126.64,260.82,149.69,183.7,594.21,Single-ply,SBD,M,
Boys,139.71,11,Briley Barron,Maud,126.92,195.04,124.74,204.12,523.9,Single-ply,SBD,M,
Boys,139.71,12,Cesar Espinosa,Strawn,124.92,192.78,120.2,183.7,496.68,Single-ply,SBD,M,
Boys,139.71+,1,Wesley Estridge,Albany,147.78,335.66,199.58,244.94,780.18,Single-ply,SBD,M,
Boys,139.71+,2,Ryleigh O'Campo,Thrall,154.13,326.59,170.1,249.48,746.16,Single-ply,SBD,M,
Boys,139.71+,3,Dorien Enriquez,Rocksprings,151.59,281.23,163.29,249.48,694,Single-ply,SBD,M,
Boys,139.71+,4,Jake Knuppel,Crawford,158.03,288.03,161.03,226.8,675.85,Single-ply,SBD,M,
Boys,139.71+,5,Taden Alvarado,Flatonia,142.61,276.69,154.22,240.4,671.32,Single-ply,SBD,M,
Boys,139.71+,6,Brett Briscoe,Petrolia,148.32,278.96,151.95,199.58,630.49,Single-ply,SBD,M,
Boys,139.71+,7,Jalen Ramirez,Wink,145.97,235.87,129.27,235.87,601.01,Single-ply,SBD,M,
Boys,139.71+,8,Julius Alaniz,Wellman-Union,146.33,272.16,120.2,204.12,596.47,Single-ply,SBD,M,
Boys,139.71+,9,Jasper Shaw,Garrison,165.38,204.12,136.08,199.58,539.77,Single-ply,SBD,M,
Boys,139.71+,10,Christian Ashby,Colorado City Colorado,144.33,208.65,120.2,174.63,503.49,Single-ply,SBD,M,
Boys,139.71+,DQ,Jabrodrick Polk,Garrison,143.52,204.12,127.01,,,Single-ply,SBD,M,
