Division,WeightClassKg,Place,Name,Team,BodyweightKg,Best3SquatKg,Best3BenchKg,Best3DeadliftKg,TotalKg,Equipment,Event,Sex
Boys,51.71,1,Angel Jaramillo,Van Alstyne,51.53,161.03,95.25,163.29,419.57,Single-ply,SBD,M
Boys,51.71,2,Taylor Nowlin,Leonard,49.44,165.56,83.91,151.95,401.43,Single-ply,SBD,M
Boys,51.71,3,Jonathan Esquivel,Melissa,48.81,97.52,61.23,106.59,265.35,Single-ply,SBD,M
Boys,51.71,4,Brian Esquivel,Melissa,48.44,92.99,54.43,104.33,251.74,Single-ply,SBD,M
Boys,51.71,5,Justin Hughs,Gainesville,50.98,83.91,47.63,83.91,215.46,Single-ply,SBD,M
Boys,51.71,6,Justin Keeton,Anna,45.36,70.31,38.56,86.18,195.04,Single-ply,SBD,M
Boys,51.71,7,Cj McKinzie,Whitesboro,44.27,65.77,34.02,81.65,181.44,Single-ply,SBD,M
Boys,51.71,8,Billy McMahon,Farmersville,39.28,61.23,38.56,77.11,176.9,Single-ply,SBD,M
Boys,51.71,DQ,Noah White,Tom Bean,51.35,,,,,Single-ply,SBD,M
Boys,55.79,1,Bryant Smith,Bonham,52.16,142.88,83.91,181.44,408.23,Single-ply,SBD,M
Boys,55.79,2,Jose Rangel,Farmersville,55.52,120.2,79.38,149.69,349.27,Single-ply,SBD,M
Boys,55.79,3,Ethan Brooks,Bonham,54.43,131.54,65.77,149.69,347,Single-ply,SBD,M
Boys,55.79,4,Darius Johnson,Sanger,53.89,122.47,90.72,113.4,326.59,Single-ply,SBD,M
Boys,55.79,5,Dalton Watwood,Pottsboro,52.8,104.33,65.77,113.4,283.5,Single-ply,SBD,M
Boys,55.79,DQ,Caleb Crimm,Van Alstyne,55.61,120.2,,,,Single-ply,SBD,M
Boys,59.87,1,Jordan Smith #7,Bonham,59.42,154.22,70.31,167.83,392.36,Single-ply,SBD,M
Boys,59.87,2,Jeremy Brennan,Van Alstyne,56.52,149.69,90.72,149.69,390.09,Single-ply,SBD,M
Boys,59.87,3,Grey Berry,Whitewright,57.06,129.27,70.31,131.54,331.12,Single-ply,SBD,M
Boys,59.87,4,Justin Lawrence,Bonham,59.42,127.01,56.7,131.54,315.25,Single-ply,SBD,M
Boys,59.87,5,Mason Thompson,Whitewright,58.33,117.93,65.77,120.2,303.91,Single-ply,SBD,M
Boys,59.87,6,Aaron Bullock,Sanger,59.06,113.4,68.04,122.47,303.91,Single-ply,SBD,M
Boys,59.87,7,Cj Isley,Whitewright,58.51,88.45,54.43,102.06,244.94,Single-ply,SBD,M
Boys,67.13,1,Drake Sides,Sanger,66.77,204.12,124.74,185.97,514.83,Single-ply,SBD,M
Boys,67.13,2,Jerrid Caffey,Whitesboro,65.05,204.12,120.2,158.76,483.08,Single-ply,SBD,M
Boys,67.13,3,Blaine Dunlap,Bonham,66.77,176.9,86.18,192.78,455.86,Single-ply,SBD,M
Boys,67.13,4,Derek Tucker,Lucas Lovejoy,66.5,163.29,120.2,163.29,446.79,Single-ply,SBD,M
Boys,74.84,5,Landon Page,Leonard,67.31,170.1,102.06,172.37,444.52,Single-ply,SBD,M
Boys,67.13,6,Austin Bailey,Lucas Lovejoy,63.96,149.69,90.72,179.17,419.57,Single-ply,SBD,M
Boys,67.13,7,Garrett Syfert,Pottsboro,64.14,170.1,83.91,158.76,412.77,Single-ply,SBD,M
Boys,67.13,8,Collin Rodger,Farmersville,65.68,154.22,102.06,145.15,401.43,Single-ply,SBD,M
Boys,67.13,9,Breelan Dunlap,Bonham,62.6,154.22,79.38,158.76,392.36,Single-ply,SBD,M
Boys,67.13,10,Josh Maynor,Pottsboro,64.14,156.49,77.11,136.08,369.68,Single-ply,SBD,M
Boys,67.13,11,Cody Voyles,Whitesboro,61.96,133.81,79.38,140.61,353.8,Single-ply,SBD,M
Boys,67.13,12,Justin Ramirez,Gainesville,62.6,111.13,74.84,136.08,322.05,Single-ply,SBD,M
Boys,67.13,13,Beau Mauldin,Gainesville,62.87,102.06,70.31,136.08,308.44,Single-ply,SBD,M
Boys,67.13,14,Aaron Decker,Whitewright,62.14,113.4,65.77,127.01,306.17,Single-ply,SBD,M
Boys,67.13,15,Hartley Lou,Gainesville,65.23,106.59,52.16,142.88,301.64,Single-ply,SBD,M
Boys,67.13,16,Brian Reynolds #4,Farmersville,66.41,90.72,74.84,120.2,285.76,Single-ply,SBD,M
Boys,67.13,DQ,Jacob Blagburn,Blue Ridge,60.51,,,,,Single-ply,SBD,M
Boys,74.84,DQ,Sebastein Spencer,Anna,67.31,183.7,88.45,,,Single-ply,SBD,M
Boys,67.13,DQ,Jake Sparks,Whitesboro,65.32,97.52,,,,Single-ply,SBD,M
Boys,74.84,1,Chris Rich,Bonham,73.75,176.9,117.93,215.46,510.29,Single-ply,SBD,M
Boys,74.84,2,Manuel Lemus,Sanger,68.95,192.78,111.13,181.44,485.34,Single-ply,SBD,M
Boys,74.84,3,Adrian Guay,Sanger,68.95,181.44,97.52,192.78,471.74,Single-ply,SBD,M
Boys,74.84,4,Tim Abbott,Bonham,72.76,172.37,95.25,181.44,449.06,Single-ply,SBD,M
Boys,74.84,5,Dustin Williams,Anna,74.3,158.76,106.59,172.37,437.72,Single-ply,SBD,M
Boys,74.84,6,Jordan Barnes #2,Van Alstyne,70.13,183.7,83.91,163.29,430.91,Single-ply,SBD,M
Boys,74.84,7,David Barnes,Farmersville,72.57,158.76,92.99,172.37,424.11,Single-ply,SBD,M
Boys,74.84,8,Kenny Watson,Whitewright,68.04,136.08,90.72,147.42,374.21,Single-ply,SBD,M
Boys,74.84,9,Leo Sanchez #3,Melissa,68.72,92.99,63.5,108.86,265.35,Single-ply,SBD,M
Boys,74.84,DQ,Jackson Bush,Melissa,69.4,140.61,,,,Single-ply,SBD,M
Boys,74.84,DQ,Tyler Bailey,Lucas Lovejoy,68.67,163.29,,,,Single-ply,SBD,M
Boys,82.1,1,Landon Lock,Gainesville,79.83,226.8,111.13,231.33,569.26,Single-ply,SBD,M
Boys,82.1,2,Tevin Daniels,Leonard,77.38,204.12,124.74,210.92,539.77,Single-ply,SBD,M
Boys,82.1,3,John Escobedo,Sanger,80.01,210.92,136.08,185.97,532.97,Single-ply,SBD,M
Boys,89.81,4,Jeremy Smith #4,Bonham,82.19,190.51,104.33,231.33,526.17,Single-ply,SBD,M
Boys,82.1,5,Shelby Long,Anna,80.92,192.78,90.72,208.65,492.15,Single-ply,SBD,M
Boys,82.1,6,Orion Thomas,Van Alstyne,75.48,181.44,117.93,185.97,485.34,Single-ply,SBD,M
Boys,82.1,7,John Norrell,Anna,78.02,158.76,92.99,161.03,412.77,Single-ply,SBD,M
Boys,82.1,8,Alex Cole,Van Alstyne,80.92,161.03,88.45,158.76,408.23,Single-ply,SBD,M
Boys,82.1,9,Alex Lovelady,Pottsboro,81.65,163.29,83.91,154.22,401.43,Single-ply,SBD,M
Boys,82.1,10,Brad Williams #3,Melissa,78.56,140.61,97.52,156.49,394.63,Single-ply,SBD,M
Boys,82.1,11,Josh Flinn,Pottsboro,78.02,142.88,88.45,151.95,383.29,Single-ply,SBD,M
Boys,82.1,12,Kristov George,Melissa,77.93,136.08,95.25,147.42,378.75,Single-ply,SBD,M
Boys,82.1,13,Mason LaTour,Lucas Lovejoy,82.1,129.27,81.65,151.95,362.87,Single-ply,SBD,M
Boys,82.1,DQ,Cameron Litzkow,Van Alstyne,81.28,165.56,,,,Single-ply,SBD,M
Boys,82.1,DQ,Brandon Love,Pottsboro,80.74,181.44,90.72,,,Single-ply,SBD,M
Boys,89.81,1,T R Hodnett,Leonard,88.09,192.78,129.27,195.04,517.1,Single-ply,SBD,M
Boys,89.81,2,Ethan Scheffler,Sanger,88.54,181.44,124.74,183.7,489.88,Single-ply,SBD,M
Boys,89.81,3,Kolby Grace,Bonham,89.36,181.44,115.67,170.1,467.2,Single-ply,SBD,M
Boys,89.81,4,Donovan Hollis,Melissa,86.64,151.95,108.86,149.69,410.5,Single-ply,SBD,M
Boys,89.81,5,Mark Gudgel,Whitewright,84.55,140.61,99.79,151.95,392.36,Single-ply,SBD,M
Boys,89.81,6,Billy Doyle,Pottsboro,88.18,131.54,77.11,151.95,360.61,Single-ply,SBD,M
Boys,89.81,7,Robert Miller,Anna,89.63,129.27,74.84,133.81,337.93,Single-ply,SBD,M
Boys,99.79,1,Taylor Robinson,Whitewright,92.53,197.31,138.35,201.85,537.51,Single-ply,SBD,M
Boys,99.79,2,Nate Krumrei,Lucas Lovejoy,91.35,204.12,115.67,188.24,508.02,Single-ply,SBD,M
Boys,99.79,3,Mark Eastin,Leonard,96.16,192.78,108.86,192.78,494.42,Single-ply,SBD,M
Boys,99.79,4,Dj Marick,Sanger,93.89,181.44,127.01,183.7,492.15,Single-ply,SBD,M
Boys,99.79,5,Tyson Henson,Bonham,98.34,185.97,90.72,204.12,480.81,Single-ply,SBD,M
Boys,99.79,6,Harry Perdomo,Melissa,96.34,163.29,124.74,181.44,469.47,Single-ply,SBD,M
Boys,99.79,7,Chrystian Molina,Lucas Lovejoy,99.16,176.9,90.72,185.97,453.59,Single-ply,SBD,M
Boys,99.79,8,Austin Ray,Lucas Lovejoy,97.89,170.1,95.25,181.44,446.79,Single-ply,SBD,M
Boys,99.79,9,Scott Blair,Anna,93.08,174.63,81.65,185.97,442.25,Single-ply,SBD,M
Boys,99.79,10,Hiram Mohammad,Lucas Lovejoy,98.07,158.76,111.13,170.1,439.98,Single-ply,SBD,M
Boys,99.79,11,Wesley Ritchson,Tom Bean,92.53,138.35,92.99,156.49,387.82,Single-ply,SBD,M
Boys,99.79,12,Vic Hollingsworth,Melissa,90.9,147.42,102.06,136.08,385.55,Single-ply,SBD,M
Boys,99.79,13,Zack Hunkapillar,Pottsboro,98.61,142.88,74.84,147.42,365.14,Single-ply,SBD,M
Boys,99.79,14,Hunter Conley,Pottsboro,99.06,142.88,79.38,138.35,360.61,Single-ply,SBD,M
Boys,99.79,DQ,Jonny Crittenden,Sanger,94.98,185.97,,,,Single-ply,SBD,M
Boys,99.79,DQ,Casey Mckay,Tom Bean,93.44,142.88,,,,Single-ply,SBD,M
Boys,99.79,DQ,Chase Hallford,Blue Ridge,90.54,92.99,,,,Single-ply,SBD,M
Boys,99.79,DQ,Aaron Butler,Bonham,98.52,,,,,Single-ply,SBD,M
Boys,109.77,1,Patrick Thompson,Lucas Lovejoy,103.96,249.48,129.27,199.58,578.33,Single-ply,SBD,M
Boys,109.77,2,Malcolm Blanco,Pottsboro,103.69,215.46,124.74,215.46,555.65,Single-ply,SBD,M
Boys,109.77,3,Tj King,Bonham,103.42,197.31,124.74,215.46,537.51,Single-ply,SBD,M
Boys,109.77,4,Kelton Brewer,Melissa,101.97,181.44,136.08,190.51,508.02,Single-ply,SBD,M
Boys,109.77,5,David Grace,Sanger,103.6,190.51,117.93,197.31,505.76,Single-ply,SBD,M
Boys,109.77,6,Manuel Monge,Van Alstyne,103.15,172.37,138.35,188.24,498.95,Single-ply,SBD,M
Boys,109.77,7,Jd Nolan,Farmersville,101.79,133.81,136.08,170.1,439.98,Single-ply,SBD,M
Boys,109.77,8,Gavin Buckaloo,Leonard,104.51,142.88,104.33,165.56,412.77,Single-ply,SBD,M
Boys,109.77,9,Adam Williams #5,Melissa,100.24,113.4,56.7,115.67,285.76,Single-ply,SBD,M
Boys,109.77,DQ,Jeffrey Williamson,Bonham,108.77,249.48,,,,Single-ply,SBD,M
Boys,124.74,1,Jakob Riley,Leonard,121.47,272.16,158.76,226.8,657.71,Single-ply,SBD,M
Boys,124.74,2,Joe Merino,Anna,124.01,238.14,129.27,204.12,571.53,Single-ply,SBD,M
Boys,124.74,3,Tanner Pelham,Anna,116.39,188.24,142.88,215.46,546.58,Single-ply,SBD,M
Boys,124.74,4,Jamie Davidson,Farmersville,123.92,188.24,127.01,165.56,480.81,Single-ply,SBD,M
Boys,124.74,5,James Metker,Sanger,116.48,165.56,108.86,172.37,446.79,Single-ply,SBD,M
Boys,124.74,6,Tyler Edwards,Pottsboro,116.03,156.49,95.25,151.95,403.7,Single-ply,SBD,M
Boys,124.74,7,Cain Oue,Whitewright,121.47,133.81,56.7,131.54,322.05,Single-ply,SBD,M
Boys,124.74,DQ,Miguel Garcia,Blue Ridge,121.74,,,,,Single-ply,SBD,M
Boys,124.74,DQ,Nate Oconner,Lucas Lovejoy,115.67,,,,,Single-ply,SBD,M
Boys,124.74+,1,Sam Whisenhunt,Leonard,126.92,251.74,149.69,217.72,619.15,Single-ply,SBD,M
Boys,124.74+,2,Shane Jones,Van Alstyne,126.19,247.21,136.08,226.8,610.08,Single-ply,SBD,M
Boys,124.74+,3,Darian Gipson-Jackson,Anna,140.16,238.14,145.15,219.99,603.28,Single-ply,SBD,M
Boys,124.74+,4,Zach Thrash,Van Alstyne,145.97,217.72,158.76,190.51,566.99,Single-ply,SBD,M
Boys,124.74+,DQ,Rusty Brasher,Anna,133.9,147.42,83.91,,,Single-ply,SBD,M
