Division,WeightClassKg,Place,Name,Team,BodyweightKg,Best3SquatKg,Best3BenchKg,Best3DeadliftKg,TotalKg,Equipment,Event,Sex
Boys,51.71,1,Sebastian Flores,Blanco,51.71,136.08,79.38,149.69,365.14,Single-ply,SBD,M
Boys,51.71,2,Tyrese Perkins,Cotulla,51.26,113.4,65.77,124.74,303.91,Single-ply,SBD,M
Boys,51.71,3,Caleb Almond,San Antonio Cole,50.26,83.91,52.16,102.06,238.14,Single-ply,SBD,M
Boys,51.71,4,Lorenzo Barfield,San Antonio Southwest,50.03,70.31,54.43,102.06,226.8,Single-ply,SBD,M
Boys,55.79,1,Leo Carrizales,Cotulla,55.61,145.15,99.79,149.69,394.63,Single-ply,SBD,M
Boys,55.79,2,Jason Flores,Cotulla,55.2,142.88,79.38,138.35,360.61,Single-ply,SBD,M
Boys,55.79,3,Nathan Martinez,San Antonio Holy Cross,54.88,129.27,65.77,151.95,347,Single-ply,SBD,M
Boys,55.79,4,Joey Garcia,Marion,54.48,108.86,63.5,145.15,317.51,Single-ply,SBD,M
Boys,59.87,1,Oziel Padilla,Natalia,59.87,192.78,102.06,181.44,476.27,Single-ply,SBD,M
Boys,59.87,2,Juan Rojas,La Pryor,57.42,181.44,115.67,163.29,460.4,Single-ply,SBD,M
Boys,59.87,3,Matthew Gauthier,Marion,59.47,140.61,95.25,179.17,415.04,Single-ply,SBD,M
Boys,59.87,4,Jesse Gonzalez,San Antonio Holy Cross,56.79,129.27,74.84,174.63,378.75,Single-ply,SBD,M
Boys,59.87,5,Maverick Graham,Lytle,58.33,142.88,83.91,149.69,376.48,Single-ply,SBD,M
Boys,59.87,6,Justin Jones,Universal City Randolph,59.28,127.01,86.18,136.08,349.27,Single-ply,SBD,M
Boys,59.87,7,Seth Aguinaga,Lytle,57.02,124.74,70.31,142.88,337.93,Single-ply,SBD,M
Boys,59.87,8,Dominic Mercado,San Antonio Cole,56.34,129.27,65.77,136.08,331.12,Single-ply,SBD,M
Boys,59.87,9,Chris Garcia #6,Pleasanton,59.19,124.74,68.04,136.08,328.85,Single-ply,SBD,M
Boys,59.87,10,Brandon Mercado,San Antonio Cole,56.84,127.01,61.23,136.08,324.32,Single-ply,SBD,M
Boys,59.87,11,Tristan Lowery,Lytle,57.06,104.33,63.5,129.27,297.1,Single-ply,SBD,M
Boys,59.87,12,Jorge Gonzales,Cotulla,59.78,108.86,70.31,115.67,294.84,Single-ply,SBD,M
Boys,59.87,13,Reagan Leone,Cotulla,59.87,74.84,61.23,102.06,238.14,Single-ply,SBD,M
Boys,59.87,14,Hunter Young #1,Marion,57.61,61.23,52.16,95.25,208.65,Single-ply,SBD,M
Boys,67.13,1,Kristopher Imhof,San Antonio Cole,65.18,199.58,106.59,204.12,510.29,Single-ply,SBD,M
Boys,67.13,2,Raul Garcia,Cotulla,64.95,199.58,111.13,195.04,505.76,Single-ply,SBD,M
Boys,67.13,3,Eddie Torres,Blanco,66.32,174.63,111.13,195.04,480.81,Single-ply,SBD,M
Boys,67.13,4,Steven Flores,Blanco,66.45,170.1,90.72,170.1,430.91,Single-ply,SBD,M
Boys,67.13,5,Tristan Watson,Bandera,66.36,158.76,97.52,165.56,421.84,Single-ply,SBD,M
Boys,67.13,6,Bryce Baso,Universal City Randolph,64.95,133.81,83.91,167.83,385.55,Single-ply,SBD,M
Boys,67.13,7,Francisco Martinez,Pleasanton,64.73,142.88,95.25,136.08,374.21,Single-ply,SBD,M
Boys,67.13,8,Ricardo Saldana,Pleasanton,65.18,136.08,97.52,136.08,369.68,Single-ply,SBD,M
Boys,67.13,9,Juid Colchado,Cotulla,61.05,131.54,88.45,133.81,353.8,Single-ply,SBD,M
Boys,67.13,10,Evan O'Berg,Universal City Randolph,67.13,127.01,79.38,142.88,349.27,Single-ply,SBD,M
Boys,67.13,11,Michael Stokes,Universal City Randolph,67,120.2,88.45,136.08,344.73,Single-ply,SBD,M
Boys,67.13,12,Roman Ornelas,San Antonio Holy Cross,60.42,117.93,65.77,151.95,335.66,Single-ply,SBD,M
Boys,67.13,13,Joseph Perez,Lytle,66.81,131.54,72.57,131.54,335.66,Single-ply,SBD,M
Boys,67.13,14,Garrett Ralph,Lytle,64.86,117.93,70.31,133.81,322.05,Single-ply,SBD,M
Boys,67.13,15,Matthew Contreras,Natalia,62.1,124.74,68.04,124.74,317.51,Single-ply,SBD,M
Boys,67.13,16,Vann Balke,Knippa,61.42,68.04,56.7,102.06,226.8,Single-ply,SBD,M
Boys,74.84,1,Dustin Del Toro,Cotulla,74.84,208.65,111.13,222.26,542.04,Single-ply,SBD,M
Boys,74.84,2,Calvin Starnes,Bandera,73.26,204.12,113.4,208.65,526.17,Single-ply,SBD,M
Boys,74.84,3,Eddie Lopez,Universal City Randolph,71.8,183.7,92.99,204.12,480.81,Single-ply,SBD,M
Boys,74.84,4,Justin Requenes,Blanco,72.12,156.49,122.47,192.78,471.74,Single-ply,SBD,M
Boys,74.84,5,Angel Martinez #5,Cotulla,74.21,170.1,106.59,170.1,446.79,Single-ply,SBD,M
Boys,74.84,6,Neil Vallejo,Pleasanton,68.95,158.76,92.99,183.7,435.45,Single-ply,SBD,M
Boys,74.84,7,Edher Nava,Marion,73.48,167.83,102.06,163.29,433.18,Single-ply,SBD,M
Boys,74.84,8,Tyrell Dunlap,San Antonio Cole,72.44,154.22,95.25,181.44,430.91,Single-ply,SBD,M
Boys,74.84,9,Matthew Garcia,San Antonio Holy Cross,72.21,149.69,92.99,185.97,428.64,Single-ply,SBD,M
Boys,74.84,10,Jon Daigle,Marion,68.95,154.22,102.06,158.76,415.04,Single-ply,SBD,M
Boys,74.84,11,Alex Gill,Universal City Randolph,69.81,156.49,88.45,147.42,392.36,Single-ply,SBD,M
Boys,74.84,12,Keith Wilkinson,San Antonio Cole,74.71,142.88,86.18,149.69,378.75,Single-ply,SBD,M
Boys,74.84,13,Elijah Macneil,Bandera,70.62,136.08,90.72,149.69,376.48,Single-ply,SBD,M
Boys,74.84,14,Jesse Zimmel,Bandera,68.76,136.08,79.38,145.15,360.61,Single-ply,SBD,M
Boys,74.84,15,Monty Lopez,Universal City Randolph,69.76,122.47,83.91,142.88,349.27,Single-ply,SBD,M
Boys,82.1,1,Robert Adame,San Antonio Holy Cross,78.74,183.7,136.08,215.46,535.24,Single-ply,SBD,M
Boys,82.1,2,Alex Paredes,Natalia,81.51,226.8,92.99,197.31,517.1,Single-ply,SBD,M
Boys,82.1,3,Andre Garza,Cotulla,81.96,192.78,115.67,190.51,498.95,Single-ply,SBD,M
Boys,82.1,4,Josh Montez,San Antonio Southwest,82.1,188.24,102.06,195.04,485.34,Single-ply,SBD,M
Boys,82.1,5,Kenton Spriggs,Marion,79.65,181.44,113.4,188.24,483.08,Single-ply,SBD,M
Boys,82.1,6,Kyle Martinez,Blanco,82.1,176.9,111.13,181.44,469.47,Single-ply,SBD,M
Boys,82.1,7,Chase Horton,Blanco,77.02,181.44,102.06,181.44,464.93,Single-ply,SBD,M
Boys,82.1,8,Micah Wilson,Universal City Randolph,78.61,167.83,97.52,181.44,446.79,Single-ply,SBD,M
Boys,82.1,9,Jacob Ruiz,Blanco,79.88,167.83,97.52,181.44,446.79,Single-ply,SBD,M
Boys,82.1,10,Edward Kierstead,San Antonio Southwest,80.38,149.69,97.52,181.44,428.64,Single-ply,SBD,M
Boys,82.1,11,Marshall Morris,Pleasanton,82.05,163.29,97.52,158.76,419.57,Single-ply,SBD,M
Boys,82.1,12,Kameron Frias,Natalia,80.1,154.22,90.72,158.76,403.7,Single-ply,SBD,M
Boys,82.1,13,James Moore #6,San Antonio Cole,81.83,129.27,74.84,172.37,376.48,Single-ply,SBD,M
Boys,82.1,14,Anthony Maldanado,La Pryor,81.56,131.54,83.91,158.76,374.21,Single-ply,SBD,M
Boys,82.1,15,Trevor Leggett,Bandera,79.15,113.4,99.79,149.69,362.87,Single-ply,SBD,M
Boys,82.1,16,Nicholas Propst,San Antonio Southwest,79.74,115.67,74.84,136.08,326.59,Single-ply,SBD,M
Boys,82.1,17,Diego Pesina,La Pryor,78.88,117.93,56.7,111.13,285.76,Single-ply,SBD,M
Boys,82.1,18,Brock Nichols,Blanco,82.1,102.06,65.77,117.93,285.76,Single-ply,SBD,M
Boys,82.1,19,Gavin Garcia,Pleasanton,77.25,102.06,56.7,120.2,278.96,Single-ply,SBD,M
Boys,89.81,1,Gus Martinez,Blanco,88.72,167.83,115.67,217.72,501.22,Single-ply,SBD,M
Boys,89.81,2,Kage Armstrong,Marion,86.95,174.63,104.33,201.85,480.81,Single-ply,SBD,M
Boys,89.81,3,Joseph Martinez,Cotulla,89.81,167.83,99.79,183.7,451.32,Single-ply,SBD,M
Boys,89.81,4,Dylan Vogt,San Antonio Holy Cross,86.05,176.9,86.18,183.7,446.79,Single-ply,SBD,M
Boys,89.81,5,Caden Fregia,Natalia,83.37,183.7,97.52,154.22,435.45,Single-ply,SBD,M
Boys,89.81,6,Jordan Lara,Knippa,86.32,179.17,72.57,176.9,428.64,Single-ply,SBD,M
Boys,89.81,7,Jacob Doerr,Marion,86.23,149.69,92.99,170.1,412.77,Single-ply,SBD,M
Boys,89.81,8,Brandon Capeheart,Knippa,87.68,151.95,79.38,158.76,390.09,Single-ply,SBD,M
Boys,89.81,9,Ethan Solomon,Pleasanton,88.13,147.42,83.91,158.76,390.09,Single-ply,SBD,M
Boys,89.81,10,Will Adams,Blanco,83.55,133.81,92.99,142.88,369.68,Single-ply,SBD,M
Boys,89.81,11,Samuel Grodman,Bandera,86.68,106.59,65.77,115.67,288.03,Single-ply,SBD,M
Boys,99.79,1,Jose Orellana,La Pryor,97.16,235.87,158.76,244.94,639.57,Single-ply,SBD,M
Boys,99.79,2,Raymond Casarez,San Antonio Holy Cross,95.3,215.46,124.74,233.6,573.79,Single-ply,SBD,M
Boys,99.79,3,Andrew Garcia,Pleasanton,94.57,199.58,117.93,226.8,544.31,Single-ply,SBD,M
Boys,99.79,4,Cole Doerr,Marion,93.58,179.17,120.2,201.85,501.22,Single-ply,SBD,M
Boys,99.79,5,Josh Duran,Marion,94.03,176.9,106.59,206.38,489.88,Single-ply,SBD,M
Boys,99.79,6,David Arvizo,La Pryor,96.62,185.97,106.59,188.24,480.81,Single-ply,SBD,M
Boys,99.79,7,Josh Almond,San Antonio Cole,92.9,172.37,102.06,174.63,449.06,Single-ply,SBD,M
Boys,99.79,8,Joshua Jones,San Antonio Southwest,90.36,154.22,88.45,192.78,435.45,Single-ply,SBD,M
Boys,99.79,9,Chance Horton,Blanco,98.34,170.1,106.59,158.76,435.45,Single-ply,SBD,M
Boys,99.79,10,Andrew Stillwell,Cotulla,93.3,185.97,90.72,147.42,424.11,Single-ply,SBD,M
Boys,99.79,11,Seth Johnson #2,Bandera,96.8,133.81,83.91,151.95,369.68,Single-ply,SBD,M
Boys,99.79,12,Travis Riechert,Bandera,90.95,104.33,83.91,145.15,333.39,Single-ply,SBD,M
Boys,99.79,13,Amador Colmenero,Lytle,93.98,122.47,79.38,124.74,326.59,Single-ply,SBD,M
Boys,99.79,14,Eivan Valencia,San Antonio Southwest,95.48,102.06,74.84,140.61,317.51,Single-ply,SBD,M
Boys,109.77,1,Jacob Caldera,San Antonio Cole,106.14,265.35,158.76,235.87,659.98,Single-ply,SBD,M
Boys,109.77,2,Austen Flores #1,San Antonio Holy Cross,108.32,215.46,129.27,258.55,603.28,Single-ply,SBD,M
Boys,109.77,3,Lupe Tellez,La Pryor,107.91,188.24,122.47,201.85,512.56,Single-ply,SBD,M
Boys,109.77,4,Logan Crane,Bandera,104.55,192.78,117.93,183.7,494.42,Single-ply,SBD,M
Boys,109.77,5,Cody Abrameit,Marion,103.56,174.63,92.99,188.24,455.86,Single-ply,SBD,M
Boys,109.77,6,Fransisco Uhl,San Antonio Southwest,106.96,136.08,115.67,176.9,428.64,Single-ply,SBD,M
Boys,109.77,7,Victor Garcia,Lytle,100.65,142.88,117.93,163.29,424.11,Single-ply,SBD,M
Boys,109.77,8,Wyatt Barrow,Knippa,106.14,154.22,81.65,154.22,390.09,Single-ply,SBD,M
Boys,109.77,9,Adrian Gomez,Knippa,109.04,120.2,74.84,90.72,285.76,Single-ply,SBD,M
Boys,124.74,1,Sisto Pacheco,Pleasanton,123.42,272.16,170.1,217.72,659.98,Single-ply,SBD,M
Boys,124.74,2,Cody Kuhl,Universal City Randolph,112.94,222.26,120.2,238.14,580.6,Single-ply,SBD,M
Boys,124.74,3,Santiago Leija,Natalia,116.48,215.46,149.69,206.38,571.53,Single-ply,SBD,M
Boys,124.74,4,Victor Cruz,Natalia,121.43,204.12,108.86,199.58,512.56,Single-ply,SBD,M
Boys,124.74,5,Oscar Ramirez,Natalia,110.22,204.12,108.86,181.44,494.42,Single-ply,SBD,M
Boys,124.74,6,Christian Adame,San Antonio Southwest,111.08,142.88,74.84,183.7,401.43,Single-ply,SBD,M
Boys,124.74,7,JR Viesca,Cotulla,113.13,138.35,86.18,174.63,399.16,Single-ply,SBD,M
Boys,124.74,8,Jose Murrillom,San Antonio Southwest,117.07,136.08,86.18,161.03,383.29,Single-ply,SBD,M
Boys,124.74,9,Jesus Mendoza-Estrada,San Antonio Southwest,118.8,120.2,111.13,151.95,383.29,Single-ply,SBD,M
Boys,124.74,10,AJ Ortiz,San Antonio Holy Cross,110.5,133.81,79.38,151.95,365.14,Single-ply,SBD,M
Boys,124.74,11,Arturo Lopez,San Antonio Southwest,110.54,120.2,79.38,142.88,342.46,Single-ply,SBD,M
Boys,124.74+,1,Ray Navarro,Natalia,133.36,317.51,151.95,272.16,741.62,Single-ply,SBD,M
Boys,124.74+,2,Roland Barcena,San Antonio Holy Cross,141.75,274.42,165.56,195.04,635.03,Single-ply,SBD,M
Boys,124.74+,3,Viviano Rodriguez,Cotulla,133.31,251.74,142.88,217.72,612.35,Single-ply,SBD,M
Boys,124.74+,4,Jonah Masters,San Antonio Cole,137.44,226.8,124.74,238.14,589.67,Single-ply,SBD,M
Boys,124.74+,5,Brandon Woltman,Pleasanton,144.02,226.8,133.81,226.8,587.4,Single-ply,SBD,M
Boys,124.74+,6,Isaiah Atseriak,San Antonio Cole,133.99,192.78,88.45,226.8,508.02,Single-ply,SBD,M
Boys,124.74+,7,Phillip Gonzalez,San Antonio Holy Cross,145.69,183.7,108.86,204.12,496.68,Single-ply,SBD,M
Boys,124.74+,8,Josh Martinez,San Antonio Southwest,133.81,170.1,111.13,165.56,446.79,Single-ply,SBD,M
