Division,WeightClassKg,Place,Name,Team,BodyweightKg,Best3SquatKg,Best3BenchKg,Best3DeadliftKg,TotalKg,Equipment,Event,Sex
Boys,55.79,1,Dylan Mikus,Magnolia West,51.94,133.81,90.72,140.61,365.14,Single-ply,SBD,M
Boys,51.71,2,Daniel Herrera,Navasota,51.3,120.2,81.65,122.47,324.32,Single-ply,SBD,M
Boys,51.71,3,Rushi Patel,College Station,50.98,120.2,58.97,136.08,315.25,Single-ply,SBD,M
Boys,51.71,4,Joel Bryan,College Station,48.9,131.54,56.7,115.67,303.91,Single-ply,SBD,M
Boys,51.71,5,Isiah Reza,College Station,48.26,108.86,52.16,113.4,274.42,Single-ply,SBD,M
Boys,55.79,6,Nick Provost,Conroe The Woodlands,51.89,102.06,52.16,120.2,274.42,Single-ply,SBD,M
Boys,51.71,7,Ian Campbell,Navasota,49.85,99.79,63.5,99.79,263.08,Single-ply,SBD,M
Boys,55.79,1,Alec Webster,Killeen Shoemaker,55.57,158.76,115.67,183.7,458.13,Single-ply,SBD,M
Boys,55.79,2,Collin Kovarcik,Needville,53.89,124.74,86.18,147.42,358.34,Single-ply,SBD,M
Boys,55.79,3,Chris Sage,Bryan,53.89,136.08,72.57,149.69,358.34,Single-ply,SBD,M
Boys,59.87,4,Jordan White,Willis,56.02,129.27,74.84,129.27,333.39,Single-ply,SBD,M
Boys,55.79,5,Nathan Erickson,Splendora,54.43,122.47,72.57,124.74,319.78,Single-ply,SBD,M
Boys,55.79,6,Ariel Perez,Brookshire Royal,52.98,45.36,31.75,83.91,161.03,Single-ply,SBD,M
Boys,55.79,DQ,Corbin Feauto,Normangee,53.61,,,,,Single-ply,SBD,M
Boys,67.13,1,Joseph Herrera #2,Navasota,59.92,176.9,90.72,149.69,417.3,Single-ply,SBD,M
Boys,59.87,2,Nigel Moyer,Conroe The Woodlands,58.88,154.22,97.52,158.76,410.5,Single-ply,SBD,M
Boys,59.87,3,Tyler Le,Palacios,58.51,158.76,77.11,172.37,408.23,Single-ply,SBD,M
Boys,67.13,4,Brian Morales,Needville,59.96,149.69,88.45,167.83,405.97,Single-ply,SBD,M
Boys,67.13,5,Alan Rios,Needville,60.06,151.95,88.45,158.76,399.16,Single-ply,SBD,M
Boys,59.87,6,Kenny Bounds,Montgomery,57.79,151.95,90.72,142.88,385.55,Single-ply,SBD,M
Boys,59.87,7,Patrick Evans,Normangee,57.52,111.13,65.77,131.54,308.44,Single-ply,SBD,M
Boys,67.13,8,Payne Gessner,Navasota,60.06,95.25,68.04,117.93,281.23,Single-ply,SBD,M
Boys,67.13,1,Noah Steptoe,Navasota,66.36,213.19,115.67,206.38,535.24,Single-ply,SBD,M
Boys,67.13,2,Braden Tschirart,College Station,65.23,204.12,120.2,176.9,501.22,Single-ply,SBD,M
Boys,67.13,3,Lucas Erickson,Splendora,67.04,174.63,120.2,199.58,494.42,Single-ply,SBD,M
Boys,67.13,4,Zach Hawkins,Conroe The Woodlands,66.5,163.29,138.35,165.56,467.2,Single-ply,SBD,M
Boys,67.13,5,Christophe Channing,Killeen Shoemaker,63.78,154.22,104.33,204.12,462.66,Single-ply,SBD,M
Boys,67.13,6,Morgan Segovia,Palacios,66.95,176.9,83.91,165.56,426.38,Single-ply,SBD,M
Boys,67.13,7,Trey Creeks,Navasota,63.59,167.83,99.79,154.22,421.84,Single-ply,SBD,M
Boys,67.13,8,Cameron Nava,Magnolia,64.68,145.15,83.91,161.03,390.09,Single-ply,SBD,M
Boys,67.13,9,Austin Edwards,College Station,66.86,161.03,70.31,147.42,378.75,Single-ply,SBD,M
Boys,67.13,10,Caelin Lukie,Bryan,66.41,136.08,81.65,154.22,371.95,Single-ply,SBD,M
Boys,67.13,11,Jarid Teran,Normangee,66.59,140.61,81.65,145.15,367.41,Single-ply,SBD,M
Boys,67.13,12,Gage Blue,Conroe The Woodlands,66.5,120.2,83.91,140.61,344.73,Single-ply,SBD,M
Boys,67.13,13,Jose Martinez,Brookshire Royal,60.96,124.74,72.57,129.27,326.59,Single-ply,SBD,M
Boys,74.84,14,Jordan Castro,Conroe The Woodlands,67.22,120.2,58.97,129.27,308.44,Single-ply,SBD,M
Boys,74.84,1,Woogie Powell,Navasota,72.62,231.33,140.61,217.72,589.67,Single-ply,SBD,M
Boys,74.84,2,Rogelio Pena,Baytown Sterling,74.75,204.12,122.47,208.65,535.24,Single-ply,SBD,M
Boys,82.1,3,Robert Franklin,College Station A&M Cons,74.93,199.58,122.47,201.85,523.9,Single-ply,SBD,M
Boys,74.84,4,Raymond Granderson,Baytown Sterling,74.75,195.04,122.47,192.78,510.29,Single-ply,SBD,M
Boys,74.84,5,Eric Preuss,Montgomery,71.03,183.7,113.4,210.92,508.02,Single-ply,SBD,M
Boys,74.84,6,Blaine Wootan,College Station,73.12,213.19,102.06,190.51,505.76,Single-ply,SBD,M
Boys,74.84,7,Caleb Hall,Montgomery,67.77,197.31,115.67,181.44,494.42,Single-ply,SBD,M
Boys,74.84,8,Asa Spade,Splendora,70.03,208.65,102.06,183.7,494.42,Single-ply,SBD,M
Boys,74.84,9,Erwin Castellanos,Magnolia West,74.62,183.7,124.74,183.7,492.15,Single-ply,SBD,M
Boys,74.84,10,Daniel Roberts,Wallis Brazos,74.75,183.7,104.33,188.24,476.27,Single-ply,SBD,M
Boys,74.84,11,Jovani Trejo,Bellville,71.85,190.51,79.38,190.51,460.4,Single-ply,SBD,M
Boys,74.84,12,Gavin Stowe,Splendora,72.85,158.76,81.65,183.7,424.11,Single-ply,SBD,M
Boys,74.84,13,Joseph Stewart,Brookshire Royal,67.77,167.83,97.52,154.22,419.57,Single-ply,SBD,M
Boys,74.84,14,Grant Fowler,Conroe The Woodlands,72.67,142.88,90.72,183.7,417.3,Single-ply,SBD,M
Boys,74.84,15,Tyrell Harris,Magnolia,73.03,158.76,97.52,161.03,417.3,Single-ply,SBD,M
Boys,74.84,16,Austin McDaniel,Magnolia,68.13,165.56,92.99,154.22,412.77,Single-ply,SBD,M
Boys,74.84,17,Lance Lowery,Magnolia,69.22,158.76,79.38,158.76,396.89,Single-ply,SBD,M
Boys,74.84,18,Elijah Edwards,Palacios,74.03,136.08,83.91,170.1,390.09,Single-ply,SBD,M
Boys,74.84,19,Jordan Fox #2,College Station,72.76,145.15,79.38,158.76,383.29,Single-ply,SBD,M
Boys,74.84,20,Brendan Olsen,College Station,67.77,147.42,72.57,138.35,358.34,Single-ply,SBD,M
Boys,74.84,21,Ryan Rios,Navasota,73.03,136.08,97.52,122.47,356.07,Single-ply,SBD,M
Boys,74.84,22,Anthony Acosta,Navasota,74.48,113.4,68.04,136.08,317.51,Single-ply,SBD,M
Boys,74.84,DQ,Ben Lowery,Wallis Brazos,73.57,,,,,Single-ply,SBD,M
Boys,74.84,DQ,Noah Fletcher,Conroe Woodlands College Park,74.62,190.51,111.13,,,Single-ply,SBD,M
Boys,74.84,DQ,Luis Viera,Wallis Brazos,69.76,185.97,106.59,,,Single-ply,SBD,M
Boys,82.1,1,Oziel Rios,Palacios,82.1,240.4,183.7,249.48,673.58,Single-ply,SBD,M
Boys,82.1,2,Elijah Chennier,Baytown Sterling,80.74,229.06,129.27,222.26,580.6,Single-ply,SBD,M
Boys,82.1,3,Zavier Wright,Baytown Sterling,80.01,226.8,120.2,204.12,551.11,Single-ply,SBD,M
Boys,82.1,4,David Garza,Palacios,82.1,208.65,124.74,213.19,546.58,Single-ply,SBD,M
Boys,82.1,5,Tony Tapia,Conroe Woodlands College Park,80.74,208.65,136.08,195.04,539.77,Single-ply,SBD,M
Boys,82.1,6,Leonard Abke,Navasota,81.33,219.99,131.54,181.44,532.97,Single-ply,SBD,M
Boys,82.1,7,Jaric Crider,Bellville,77.11,199.58,115.67,204.12,519.36,Single-ply,SBD,M
Boys,82.1,8,Anthony Chaney,Huntsville,79.83,199.58,117.93,195.04,512.56,Single-ply,SBD,M
Boys,82.1,9,Antone Wallace,Bryan,75.66,204.12,113.4,190.51,508.02,Single-ply,SBD,M
Boys,82.1,10,Jay Martinez,Wallis Brazos,81.01,192.78,111.13,158.76,462.66,Single-ply,SBD,M
Boys,82.1,11,Clint Ables,Bellville,81.1,172.37,95.25,185.97,453.59,Single-ply,SBD,M
Boys,82.1,12,Ben Wolz,College Station,80.47,158.76,86.18,161.03,405.97,Single-ply,SBD,M
Boys,82.1,13,Edgar Silva,Navasota,81.28,145.15,95.25,145.15,385.55,Single-ply,SBD,M
Boys,82.1,DQ,Aaron Ratliff,Normangee,79.74,,,,,Single-ply,SBD,M
Boys,82.1,DQ,Tony Landry,Baytown Sterling,81.19,204.12,136.08,,,Single-ply,SBD,M
Boys,82.1,DQ,Conner Ackley,Brookshire Royal,78.56,172.37,,,,Single-ply,SBD,M
Boys,82.1,DQ,Kyle Brennan,Conroe The Woodlands,79.83,192.78,120.2,,,Single-ply,SBD,M
Boys,89.81,1,Desmond Payton,College Station,89.18,308.44,129.27,299.37,737.09,Single-ply,SBD,M
Boys,89.81,2,Austin Cude,Navasota,88.18,249.48,167.83,231.33,648.64,Single-ply,SBD,M
Boys,89.81,3,Garrett Grant,College Station,85.91,249.48,117.93,213.19,580.6,Single-ply,SBD,M
Boys,89.81,4,David Ramirez,Navasota,88.99,231.33,131.54,181.44,544.31,Single-ply,SBD,M
Boys,89.81,5,Dustin Baranowski,Conroe The Woodlands,87.36,208.65,120.2,210.92,539.77,Single-ply,SBD,M
Boys,89.81,6,Hayden Henry,Hallettsville,88.9,219.99,124.74,195.04,539.77,Single-ply,SBD,M
Boys,89.81,7,Ben Carmean,Bellville,87.72,219.99,129.27,183.7,532.97,Single-ply,SBD,M
Boys,89.81,8,Seth Alvarez,Palacios,85.55,224.53,108.86,195.04,528.44,Single-ply,SBD,M
Boys,89.81,9,Ali Jumuli,Conroe The Woodlands,87.36,183.7,111.13,183.7,478.54,Single-ply,SBD,M
Boys,89.81,10,Travis Damazio,Magnolia,87.09,174.63,102.06,165.56,442.25,Single-ply,SBD,M
Boys,89.81,11,Ethan Ripkoski,Navasota,88.9,145.15,72.57,145.15,362.87,Single-ply,SBD,M
Boys,89.81,DQ,Keyondrick Philio,Navasota,84.5,,,,,Single-ply,SBD,M
Boys,89.81,DQ,Dave Harris,Navasota,88.13,217.72,113.4,,,Single-ply,SBD,M
Boys,89.81,DQ,Michael Taylor #2,Splendora,89.36,142.88,92.99,,,Single-ply,SBD,M
Boys,99.79,DQ,Steven Largent,Huntsville,90.04,181.44,,,,Single-ply,SBD,M
Boys,89.81,DQ,Jesus Bernal,Brookshire Royal,84.46,140.61,88.45,,,Single-ply,SBD,M
Boys,89.81,DQ,Colton George,Wallis Brazos,87.91,176.9,122.47,,,Single-ply,SBD,M
Boys,109.77,1,Marquez Byrd,Navasota,99.97,272.16,131.54,278.96,682.66,Single-ply,SBD,M
Boys,99.79,2,Tyler Ray,Magnolia West,97.75,254.01,170.1,233.6,657.71,Single-ply,SBD,M
Boys,99.79,3,Will Efendiev,College Station,94.8,249.48,156.49,249.48,655.44,Single-ply,SBD,M
Boys,109.77,4,Matthew Reed,Conroe Woodlands College Park,100.02,233.6,127.01,244.94,605.55,Single-ply,SBD,M
Boys,99.79,5,Hunter Madore,Conroe The Woodlands,95.8,204.12,138.35,222.26,564.72,Single-ply,SBD,M
Boys,99.79,6,Ty Evans #2,Montgomery,96.34,215.46,120.2,226.8,562.45,Single-ply,SBD,M
Boys,99.79,7,John Carter,Willis,92.53,208.65,129.27,213.19,551.11,Single-ply,SBD,M
Boys,99.79,8,Cole Wade,Magnolia West,92.53,208.65,122.47,204.12,535.24,Single-ply,SBD,M
Boys,99.79,9,Seth Miller,Magnolia,92.53,199.58,113.4,197.31,510.29,Single-ply,SBD,M
Boys,99.79,10,Luke Kretschmer,Magnolia West,98.88,199.58,127.01,183.7,510.29,Single-ply,SBD,M
Boys,99.79,11,Bradley Dorsett,College Station,93.08,204.12,111.13,176.9,492.15,Single-ply,SBD,M
Boys,99.79,12,KeKe Anderson,College Station,94.62,181.44,88.45,181.44,451.32,Single-ply,SBD,M
Boys,99.79,DQ,Mason Storrs,Magnolia West,96.16,183.7,,,,Single-ply,SBD,M
Boys,99.79,DQ,Hunter Grimmett,Montgomery,95.44,204.12,,,,Single-ply,SBD,M
Boys,99.79,DQ,Justin Pechacek,Montgomery,91.9,238.14,,,,Single-ply,SBD,M
Boys,109.77,1,Kee Kee Johnson,Bryan,107.32,249.48,129.27,249.48,628.23,Single-ply,SBD,M
Boys,109.77,2,James Hayes,College Station,109.41,256.28,124.74,238.14,619.15,Single-ply,SBD,M
Boys,109.77,3,Lex Leibfried,Bellville,103.78,235.87,147.42,217.72,601.01,Single-ply,SBD,M
Boys,109.77,4,Artie Reyes,Bryan,109.68,235.87,149.69,213.19,598.74,Single-ply,SBD,M
Boys,109.77,5,Cal Bauer,Navasota,107.95,213.19,138.35,217.72,569.26,Single-ply,SBD,M
Boys,109.77,6,Kevin Carpenter,Palacios,109.41,210.92,115.67,226.8,553.38,Single-ply,SBD,M
Boys,109.77,7,Brandon West,Splendora,105.91,156.49,83.91,142.88,383.29,Single-ply,SBD,M
Boys,109.77,DQ,Cory Stang,Magnolia,106.87,,,,,Single-ply,SBD,M
Boys,109.77,DQ,Ryan Lewis,Brownwood,106.59,,,,,Single-ply,SBD,M
Boys,109.77,DQ,De'Mondre Wade,Brookshire Royal,107.32,142.88,,,,Single-ply,SBD,M
Boys,109.77,DQ,Matt Sutherland,Bryan,101.51,174.63,,,,Single-ply,SBD,M
Boys,109.77,DQ,Dustin Nicholas,Huntsville,102.06,226.8,113.4,,,Single-ply,SBD,M
Boys,109.77,DQ,Kevin Rodriguez,Navasota,107.95,,,,,Single-ply,SBD,M
Boys,109.77,DQ,Noah Ramirez,Splendora,105.96,142.88,,,,Single-ply,SBD,M
Boys,124.74,1,Drew Rodriguez,College Station,120.84,281.23,136.08,233.6,650.91,Single-ply,SBD,M
Boys,124.74,2,Jake Hollech,Magnolia West,119.75,238.14,167.83,204.12,610.08,Single-ply,SBD,M
Boys,124.74,3,Tyler Burford,Magnolia West,115.89,210.92,133.81,219.99,564.72,Single-ply,SBD,M
Boys,124.74,4,Zach Ransom,College Station A&M Cons,117.93,217.72,120.2,210.92,548.85,Single-ply,SBD,M
Boys,124.74,5,Jared Spivey,Bryan,111.13,240.4,127.01,167.83,535.24,Single-ply,SBD,M
Boys,124.74,6,Justen Williams,Bellville,116.39,213.19,124.74,179.17,517.1,Single-ply,SBD,M
Boys,124.74,7,David Hahn,College Station,118.48,226.8,106.59,158.76,492.15,Single-ply,SBD,M
Boys,124.74,8,Stephen Nevarez,Magnolia West,113.4,190.51,120.2,174.63,485.34,Single-ply,SBD,M
Boys,124.74,9,Peek Justin,Magnolia,122.29,197.31,124.74,161.03,483.08,Single-ply,SBD,M
Boys,124.74,DQ,Baily Fox,Montgomery,121.93,213.19,151.95,,,Single-ply,SBD,M
Boys,124.74,DQ,Nathan Ramon,Huntsville,117.48,,,,,Single-ply,SBD,M
Boys,124.74,DQ,Niall Creager,College Station A&M Cons,116.66,,,,,Single-ply,SBD,M
Boys,124.74,DQ,DeQuan Allen,Baytown Sterling,114.4,276.69,179.17,,,Single-ply,SBD,M
Boys,124.74,DQ,Hayden Day,Brownwood,117.84,226.8,136.08,,,Single-ply,SBD,M
Boys,124.74,DQ,Cory Spellman,Navasota,120.84,154.22,,,,Single-ply,SBD,M
Boys,124.74+,1,Jordan Seymore,College Station,137.89,299.37,161.03,226.8,687.19,Single-ply,SBD,M
Boys,124.74+,2,Corey Ross,Navasota,129.91,272.16,195.04,208.65,675.85,Single-ply,SBD,M
Boys,124.74+,3,Dustin Blankemeyer,Bellville,160.8,265.35,181.44,222.26,669.05,Single-ply,SBD,M
Boys,124.74+,4,Jimmy White,Willis,138.35,278.96,165.56,219.99,664.51,Single-ply,SBD,M
Boys,124.74+,5,Brandon Jones #5,Montgomery,138.53,281.23,154.22,226.8,662.24,Single-ply,SBD,M
Boys,124.74+,6,Kevin Hurtado,Conroe Woodlands College Park,151.86,281.23,136.08,201.85,619.15,Single-ply,SBD,M
Boys,124.74+,7,Ashton Martinez,Needville,129.64,215.46,111.13,217.72,544.31,Single-ply,SBD,M
Boys,124.74+,8,Jake Carr,Palacios,132.45,185.97,113.4,158.76,458.13,Single-ply,SBD,M
Boys,124.74+,DQ,Fransisco Infante,Brookshire Royal,133.63,226.8,124.74,,,Single-ply,SBD,M
Boys,,NS,Bryce Hall,Baytown Sterling,,,,,,Single-ply,SBD,M
Boys,,NS,Herbet Godeau,Baytown Sterling,,,,,,Single-ply,SBD,M
Boys,,NS,Javon Jefferson,Bryan,,,,,,Single-ply,SBD,M
Boys,,NS,Jaquita Thompson,Bryan,,,,,,Single-ply,SBD,M
Boys,,NS,Alex Reyes,Brookshire Royal,,,,,,Single-ply,SBD,M
Boys,,NS,Ivan Bustos,Brookshire Royal,,,,,,Single-ply,SBD,M
Boys,,NS,Frank Cobio,Brookshire Royal,,,,,,Single-ply,SBD,M
Boys,,NS,Tye'Rus Jones,Brownwood,,,,,,Single-ply,SBD,M
Boys,,NS,Spencer Choka,Bryan Rudder,,,,,,Single-ply,SBD,M
Boys,,NS,Jack Lockhart,Conroe The Woodlands,,,,,,Single-ply,SBD,M
Boys,,NS,Ylijaah Hall,Bryan,,,,,,Single-ply,SBD,M
Boys,,NS,Colton Roberts,Normangee,,,,,,Single-ply,SBD,M
Boys,,NS,Layton Noey,Normangee,,,,,,Single-ply,SBD,M
Boys,,NS,Enrique Hercules,Wallis Brazos,,,,,,Single-ply,SBD,M
Boys,,NS,Feron Felix,Wallis Brazos,,,,,,Single-ply,SBD,M
Boys,,NS,Jordan Newsome,Wallis Brazos,,,,,,Single-ply,SBD,M
Boys,,NS,Michael Morris #2,Splendora,,,,,,Single-ply,SBD,M
Boys,,NS,Aaron Thomas #4,Magnolia West,,,,,,Single-ply,SBD,M
Boys,,NS,Tyrique Hayes,College Station,,,,,,Single-ply,SBD,M
Boys,,NS,Austin Hamm,College Station,,,,,,Single-ply,SBD,M
