Division,WeightClassKg,Place,Name,Team,BodyweightKg,Best3SquatKg,Best3BenchKg,Best3DeadliftKg,TotalKg,Equipment,Event,Sex
Boys,51.71,1,Kenieth Dodson,Pottsboro,51.71,140.61,88.45,140.61,369.68,Single-ply,SBD,M
Boys,51.71,2,Alex Samano,Decatur,49.9,117.93,58.97,147.42,324.32,Single-ply,SBD,M
Boys,55.79,3,Kittrell Phillips,Allen,51.8,108.86,72.57,140.61,322.05,Single-ply,SBD,M
Boys,51.71,4,Ryan Robinson,Allen,47.45,102.06,63.5,106.59,272.16,Single-ply,SBD,M
Boys,51.71,5,Ryan Slagle,Pottsboro,49.9,113.4,54.43,104.33,272.16,Single-ply,SBD,M
Boys,51.71,6,Joshua Wilson,Bonham,50.08,99.79,49.9,117.93,267.62,Single-ply,SBD,M
Boys,51.71,7,Brendan Collum,Sadler S & S Cons,51.35,95.25,40.82,113.4,249.48,Single-ply,SBD,M
Boys,51.71,8,Cody Crowe,Whitesboro,51.71,77.11,40.82,92.99,210.92,Single-ply,SBD,M
Boys,55.79,1,Russell Wilcox,Leonard,54.61,161.03,63.5,167.83,392.36,Single-ply,SBD,M
Boys,55.79,2,Lane Morgan,Van Alstyne,54.52,108.86,70.31,142.88,322.05,Single-ply,SBD,M
Boys,59.87,3,Steven Keenan,Bonham,55.97,113.4,70.31,138.35,322.05,Single-ply,SBD,M
Boys,55.79,DQ,Jesus Gam,Decatur,53.61,104.33,,,,Single-ply,SBD,M
Boys,59.87,1,Jonathan Juarez,Celina,59.78,185.97,97.52,199.58,483.08,Single-ply,SBD,M
Boys,59.87,2,Brandon Jones #8,Cumby,59.6,170.1,122.47,176.9,469.47,Single-ply,SBD,M
Boys,59.87,3,Erik Torres,Celina,58.69,142.88,102.06,149.69,394.63,Single-ply,SBD,M
Boys,59.87,4,Kaleb Beck,Howe,59.87,140.61,74.84,179.17,394.63,Single-ply,SBD,M
Boys,59.87,5,Koby Parker,Pottsboro,58.97,145.15,95.25,149.69,390.09,Single-ply,SBD,M
Boys,59.87,6,Gio Soto,Leonard,59.69,124.74,83.91,147.42,356.07,Single-ply,SBD,M
Boys,59.87,7,Nyal Barnes,Allen,59.42,133.81,81.65,138.35,353.8,Single-ply,SBD,M
Boys,59.87,8,Danny Nguyen,Whitesboro,57.79,124.74,74.84,140.61,340.19,Single-ply,SBD,M
Boys,59.87,9,Jack Jones #4,Cumby,58.24,127.01,81.65,131.54,340.19,Single-ply,SBD,M
Boys,67.13,10,Clay Hobbs,Howe,59.96,138.35,65.77,124.74,328.85,Single-ply,SBD,M
Boys,59.87,11,Alex Montoya,Blue Ridge,58.15,117.93,72.57,131.54,322.05,Single-ply,SBD,M
Boys,59.87,12,Questin Stumpff,Pottsboro,59.24,124.74,77.11,117.93,319.78,Single-ply,SBD,M
Boys,59.87,13,Josh Beck,Howe,58.33,122.47,68.04,122.47,312.98,Single-ply,SBD,M
Boys,59.87,14,Chase Smith,Van Alstyne,57.65,88.45,61.23,113.4,263.08,Single-ply,SBD,M
Boys,67.13,1,Ty Slaughter,Whitesboro,66.5,188.24,113.4,199.58,501.22,Single-ply,SBD,M
Boys,74.84,2,Ramon Fierro,Howe,67.31,183.7,92.99,204.12,480.81,Single-ply,SBD,M
Boys,67.13,3,Michael Vest,Celina,65.41,181.44,111.13,181.44,474,Single-ply,SBD,M
Boys,67.13,4,Marcos Morales,Decatur,64.32,151.95,102.06,183.7,437.72,Single-ply,SBD,M
Boys,67.13,5,Shawn Cooper,Allen,64.86,154.22,95.25,167.83,417.3,Single-ply,SBD,M
Boys,67.13,6,Daylan Lott,Celina,66.86,136.08,111.13,154.22,401.43,Single-ply,SBD,M
Boys,67.13,7,Alwin Crawford,Northwest Nelson,61.87,151.95,90.72,156.49,399.16,Single-ply,SBD,M
Boys,74.84,8,Jake Haker,Van Alstyne,67.22,136.08,95.25,167.83,399.16,Single-ply,SBD,M
Boys,67.13,9,Anthony Hawthorne,Howe,66.22,154.22,83.91,156.49,394.63,Single-ply,SBD,M
Boys,67.13,10,Preston Jones,Melissa,64.77,113.4,79.38,136.08,328.85,Single-ply,SBD,M
Boys,67.13,11,Mario Corona,Gainesville,65.23,133.81,68.04,117.93,319.78,Single-ply,SBD,M
Boys,67.13,12,Paul Lutz,Leonard,62.51,115.67,63.5,136.08,315.25,Single-ply,SBD,M
Boys,67.13,13,Tucker Schuring,Decatur,62.23,111.13,72.57,104.33,288.03,Single-ply,SBD,M
Boys,67.13,DQ,Austin Lumpkin,Gainesville,60.96,34.02,,,,Single-ply,SBD,M
Boys,74.84,1,Brice Chaney,Whitesboro,74.03,195.04,111.13,235.87,542.04,Single-ply,SBD,M
Boys,74.84,2,Joaquin Lopez,Howe,71.58,195.04,111.13,210.92,517.1,Single-ply,SBD,M
Boys,82.1,3,Foster Frisk,Celina,75.07,199.58,106.59,195.04,501.22,Single-ply,SBD,M
Boys,74.84,4,Austin Vaden,Celina,72.12,195.04,117.93,176.9,489.88,Single-ply,SBD,M
Boys,74.84,5,Chad Layton,Decatur,72.03,176.9,108.86,195.04,480.81,Single-ply,SBD,M
Boys,74.84,6,Tayelor Doty,Allen,73.94,190.51,108.86,181.44,480.81,Single-ply,SBD,M
Boys,74.84,7,Clayton Stringer,Whitesboro,71.3,170.1,92.99,190.51,453.59,Single-ply,SBD,M
Boys,74.84,8,Chris de la Cruz,Pottsboro,72.85,163.29,95.25,165.56,424.11,Single-ply,SBD,M
Boys,74.84,9,Terry Lawrence,Van Alstyne,69.85,174.63,81.65,154.22,410.5,Single-ply,SBD,M
Boys,82.1,10,Adam White,Van Alstyne,75.07,122.47,86.18,174.63,383.29,Single-ply,SBD,M
Boys,74.84,11,Jacob Baker #1,Pottsboro,69.94,136.08,74.84,140.61,351.53,Single-ply,SBD,M
Boys,74.84,12,Triston Pryor,Van Alstyne,71.94,129.27,74.84,145.15,349.27,Single-ply,SBD,M
Boys,74.84,13,Edgar Ramirez,Gainesville,72.57,138.35,74.84,133.81,347,Single-ply,SBD,M
Boys,74.84,14,Patton Lyons,Pottsboro,72.94,131.54,65.77,127.01,324.32,Single-ply,SBD,M
Boys,74.84,15,Charles Overby,Howe,68.4,124.74,77.11,120.2,322.05,Single-ply,SBD,M
Boys,74.84,16,Chad Schandelmeier,Melissa,73.75,90.72,68.04,124.74,283.5,Single-ply,SBD,M
Boys,74.84,DQ,Dalton Wheeler,Whitesboro,70.85,,,,,Single-ply,SBD,M
Boys,82.1,1,Jad Jabary,Allen,79.47,204.12,149.69,201.85,555.65,Single-ply,SBD,M
Boys,89.81,2,Joel Kabongo,Northwest Nelson,82.19,201.85,117.93,226.8,546.58,Single-ply,SBD,M
Boys,82.1,3,Jordan Ortiz,Northwest Nelson,80.92,197.31,111.13,201.85,510.29,Single-ply,SBD,M
Boys,82.1,4,Arnold Contreras,Leonard,81.74,197.31,120.2,188.24,505.76,Single-ply,SBD,M
Boys,82.1,5,Michael Tsapos,Northwest Nelson,76.29,210.92,113.4,172.37,496.68,Single-ply,SBD,M
Boys,82.1,6,Stephen Duncan,Celina,79.11,183.7,115.67,195.04,494.42,Single-ply,SBD,M
Boys,82.1,7,Coleman Drost,Allen,79.02,188.24,102.06,192.78,483.08,Single-ply,SBD,M
Boys,82.1,8,Harrison Flinn,Pottsboro,78.11,165.56,108.86,188.24,462.66,Single-ply,SBD,M
Boys,82.1,9,Brady Smith,Howe,76.66,161.03,108.86,190.51,460.4,Single-ply,SBD,M
Boys,82.1,10,Trenton Brawner,Celina,81.19,136.08,86.18,158.76,381.02,Single-ply,SBD,M
Boys,82.1,11,Niko Mascia,Northwest Nelson,80.83,138.35,92.99,136.08,367.41,Single-ply,SBD,M
Boys,82.1,12,Jose Ortiz,Gainesville,80.29,113.4,83.91,147.42,344.73,Single-ply,SBD,M
Boys,82.1,13,Anthony Jordan,Pottsboro,80.29,120.2,72.57,136.08,328.85,Single-ply,SBD,M
Boys,82.1,14,Brendan Pando,Gainesville,77.93,79.38,70.31,136.08,285.76,Single-ply,SBD,M
Boys,89.81,1,Jeremiah Bottoms,Celina,88.63,260.82,149.69,226.8,637.3,Single-ply,SBD,M
Boys,89.81,2,Luis Erives,Sadler S & S Cons,82.37,185.97,120.2,226.8,532.97,Single-ply,SBD,M
Boys,89.81,3,Chris White,Gainesville,87.09,192.78,133.81,190.51,517.1,Single-ply,SBD,M
Boys,89.81,4,Zack Bishop,Allen,87.63,181.44,113.4,204.12,498.95,Single-ply,SBD,M
Boys,89.81,5,Cody Anderson,Cumby,86.82,190.51,99.79,206.38,496.68,Single-ply,SBD,M
Boys,89.81,6,Weston Jobe,Blue Ridge,88,199.58,111.13,185.97,496.68,Single-ply,SBD,M
Boys,89.81,7,Kyle Griffith,Northwest Nelson,87.82,176.9,111.13,199.58,487.61,Single-ply,SBD,M
Boys,89.81,8,Hayden Sanders,Northwest Nelson,83.91,170.1,124.74,185.97,480.81,Single-ply,SBD,M
Boys,89.81,9,Jimmy Patterson,Howe,89.81,165.56,111.13,142.88,419.57,Single-ply,SBD,M
Boys,89.81,10,Clark Sulivant,Sadler S & S Cons,82.37,122.47,106.59,183.7,412.77,Single-ply,SBD,M
Boys,89.81,11,Ryan Folk,Van Alstyne,89.54,149.69,99.79,158.76,408.23,Single-ply,SBD,M
Boys,89.81,12,Hunter Montoya,Melissa,84.82,136.08,72.57,163.29,371.95,Single-ply,SBD,M
Boys,89.81,13,Ian Mauldin,Leonard,85.37,138.35,79.38,149.69,367.41,Single-ply,SBD,M
Boys,89.81,14,Tristan Torres,Sadler S & S Cons,86,147.42,65.77,151.95,365.14,Single-ply,SBD,M
Boys,89.81,DQ,Bryce Himmelreich,Van Alstyne,88.77,163.29,122.47,,,Single-ply,SBD,M
Boys,99.79,1,Thomas Morales,Whitesboro,95.89,215.46,131.54,199.58,546.58,Single-ply,SBD,M
Boys,99.79,2,Caleb Hill,Bonham,90.45,206.38,95.25,204.12,505.76,Single-ply,SBD,M
Boys,99.79,3,Manny Semidey,Van Alstyne,92.17,161.03,108.86,185.97,455.86,Single-ply,SBD,M
Boys,99.79,4,Blake Barnett,Howe,90.08,174.63,92.99,174.63,442.25,Single-ply,SBD,M
Boys,99.79,5,Justin Baker,Leonard,91.53,151.95,95.25,158.76,405.97,Single-ply,SBD,M
Boys,99.79,6,Austin Gibson,Northwest Nelson,91.26,142.88,83.91,154.22,381.02,Single-ply,SBD,M
Boys,99.79,7,Jeremy Harolds,Celina,95.44,133.81,97.52,140.61,371.95,Single-ply,SBD,M
Boys,99.79,8,Russell Carey,Whitesboro,93.8,115.67,72.57,149.69,337.93,Single-ply,SBD,M
Boys,99.79,DQ,Tylor Libby,Cumby,91.35,,,,,Single-ply,SBD,M
Boys,109.77,1,Heber Hernandez,Sadler S & S Cons,107.5,233.6,151.95,260.82,646.37,Single-ply,SBD,M
Boys,109.77,2,Ethan Lawson,Sadler S & S Cons,107.41,226.8,136.08,226.8,589.67,Single-ply,SBD,M
Boys,109.77,3,Justin Lawler,Pottsboro,107.59,238.14,147.42,204.12,589.67,Single-ply,SBD,M
Boys,109.77,4,Graham Cowdrey,Decatur,105.41,192.78,127.01,190.51,510.29,Single-ply,SBD,M
Boys,109.77,5,Hayden Hawkins,Northwest Nelson,107.95,154.22,90.72,163.29,408.23,Single-ply,SBD,M
Boys,109.77,6,Carson Heady,Pottsboro,103.24,131.54,65.77,136.08,333.39,Single-ply,SBD,M
Boys,109.77,7,Jake Cox,Whitesboro,101.06,99.79,79.38,106.59,285.76,Single-ply,SBD,M
Boys,109.77,DQ,James Evans,Cumby,103.33,,,,,Single-ply,SBD,M
Boys,124.74,1,Dillon Gage,Sadler S & S Cons,116.3,235.87,188.24,217.72,641.83,Single-ply,SBD,M
Boys,124.74,2,Caleb Mitcheson,Whitesboro,124.19,235.87,145.15,217.72,598.74,Single-ply,SBD,M
Boys,124.74,3,Cameron Adkins,Leonard,123.56,217.72,145.15,222.26,585.13,Single-ply,SBD,M
Boys,124.74,4,Tejan Koroma,Allen,115.48,222.26,140.61,201.85,564.72,Single-ply,SBD,M
Boys,124.74,5,Manny Rodriguez,Gainesville,111.77,199.58,104.33,195.04,498.95,Single-ply,SBD,M
Boys,124.74,6,Austin Reese,Melissa,113.94,190.51,111.13,190.51,492.15,Single-ply,SBD,M
Boys,124.74,7,Brendan Eades,Leonard,112.4,149.69,95.25,181.44,426.38,Single-ply,SBD,M
Boys,124.74,DQ,Will Brosdon,Howe,112.31,,,,,Single-ply,SBD,M
Boys,124.74+,1,Bryan Townsend,Whitesboro,126.01,242.67,165.56,249.48,657.71,Single-ply,SBD,M
Boys,124.74+,2,Jacob Hartsell,Decatur,128,204.12,138.35,217.72,560.19,Single-ply,SBD,M
Boys,124.74+,3,Duke Smith,Northwest Nelson,133.36,226.8,117.93,197.31,542.04,Single-ply,SBD,M
Boys,124.74+,4,Myles Massei,Allen,135.81,222.26,124.74,183.7,530.7,Single-ply,SBD,M
Boys,124.74+,5,Marcos Garcia,Gainesville,162.11,215.46,129.27,185.97,530.7,Single-ply,SBD,M
Boys,124.74+,DQ,Erik Deleon,Gainesville,127.82,,,,,Single-ply,SBD,M
Boys,124.74+,DQ,Matt Herrera,Gainesville,143.79,,,,,Single-ply,SBD,M
